# Object Export From Tinkercad Server 2015

mtllib obj.mtl

o obj_0
v 79.509 		-42.139 		30
v 79.107 		-41.9 		30
v 49.5 		-59 		0.001
v 49.5 		-59 		1
v 78.702 		-41.661 		30
v 48.5 		-59 		1
v 48.5 		-59 		0.001
v 78.297 		-41.426 		30
v 73.8 		-40.15 		0
v 77.891 		-41.195 		30
v 74.2 		-40.35 		0
v 79 		-43 		30
v 75 		-40.76 		0
v 78.6 		-42.762 		30
v 74.6 		-40.554 		0
v 78.2 		-42.526 		30
v 73.836 		-39.053 		0
v 74.241 		-39.253 		0
v 74.647 		-39.456 		0
v 75.053 		-39.662 		0
v 75.459 		-39.871 		0
v 75.864 		-40.084 		0
v 76.27 		-40.3 		0
v 76.675 		-40.518 		0
v 77.081 		-40.741 		0
v 77.8 		-42.294 		30
v 75.8 		-41.182 		30
v 75.4 		-40.97 		30
v 70.6 		-38.666 		0
v 70.2 		-38.494 		0
v 69.8 		-38.326 		0
v 71 		-38.84 		0
v 77.4 		-42.066 		30
v 76.2 		-41.398 		30
v 77 		-41.84 		30
v 76.6 		-41.618 		30
v 69.775 		-37.234 		0
v 70.181 		-37.402 		0
v 70.587 		-37.572 		0
v 70.993 		-37.746 		0
v 71.4 		-37.923 		0
v 71.806 		-38.104 		0
v 72.212 		-38.287 		0
v 72.618 		-38.474 		0
v 73.024 		-38.664 		0
v 73.43 		-38.857 		0
v 72.6 		-39.57 		0
v 72.2 		-39.382 		0
v 48.588 		-33.002 		0
v 48.18 		-33.007 		0
v 73.4 		-39.954 		0
v 71.8 		-39.198 		0
v 71.4 		-39.018 		0
v 73 		-39.76 		0
v 48.996 		-33 		0
v 53 		-34.16 		0
v 49 		-34 		0.001
v 51.4 		-34.058 		0
v 48.6 		-34.002 		0.001
v 48.6 		-34.002 		0
v 49 		-34 		0
v 52.2 		-34.102 		0
v 52.6 		-34.13 		0
v 48.5 		-34.003 		0.001
v 48.2 		-34.006 		0
v 65.8 		-36.822 		0
v 51.8 		-34.078 		0
v 65.708 		-35.738 		0
v 66.115 		-35.873 		0
v 66.522 		-36.012 		0
v 66.929 		-36.153 		0
v 67.335 		-36.298 		0
v 67.742 		-36.446 		0
v 68.149 		-36.597 		0
v 68.555 		-36.752 		0
v 52.668 		-33.132 		0
v 52.26 		-33.104 		0
v 67 		-37.24 		0
v 66.6 		-37.098 		0
v 53.076 		-33.163 		0
v 69.4 		-38.162 		0
v 51.444 		-33.059 		0
v 66.2 		-36.958 		0
v 48.5 		-34.003 		1
v 69 		-38 		0
v 68.6 		-37.842 		0
v 68.2 		-37.686 		0
v 67.4 		-37.386 		0
v 51.852 		-33.08 		0
v 49 		-34 		1
v 48.6 		-34.002 		1
v 67.8 		-37.534 		0
v 47.772 		-33.015 		0
v 47.364 		-33.026 		0
v 68.962 		-36.909 		0
v 69.368 		-37.07 		0
v 79 		-43 		0
v 78.6 		-42.762 		0
v 47.4 		-34.026 		0
v 47.8 		-34.014 		0
v 78.2 		-42.526 		0
v 79.509 		-42.139 		0
v 77.891 		-41.195 		0
v 78.297 		-41.426 		0
v 78.702 		-41.661 		0
v 79.107 		-41.9 		0
v 77.8 		-42.294 		0
v 45.732 		-33.105 		0
v 45.324 		-33.132 		0
v 75.8 		-41.182 		0
v 75.4 		-40.97 		0
v 46.14 		-33.08 		0
v 46.548 		-33.059 		0
v 77.4 		-42.066 		0
v 76.2 		-41.398 		0
v 46.956 		-33.041 		0
v 77 		-41.84 		0
v 45.4 		-34.13 		0
v 45.8 		-34.102 		0
v 76.6 		-41.618 		0
v 46.2 		-34.078 		0
v 77.486 		-40.966 		0
v 47 		-34.04 		0
v 65 		-36.56 		0
v 46.6 		-34.058 		0
v 64.6 		-36.434 		0
v 51 		-34.04 		0
v 64.2 		-36.31 		0
v 63.8 		-36.19 		0
v 50.6 		-34.026 		0
v 65.4 		-36.69 		0
v 50.2 		-34.014 		0
v 50.22 		-33.015 		0
v 63.673 		-35.112 		0
v 64.08 		-35.23 		0
v 64.487 		-35.353 		0
v 64.894 		-35.478 		0
v 65.301 		-35.606 		0
v 51.036 		-33.041 		0
v 63 		-35.96 		0
v 62.6 		-35.85 		0
v 50.628 		-33.026 		0
v 61.8 		-35.638 		0
v 62.2 		-35.742 		0
v 49.5 		-34.003 		0.001
v 49.4 		-34.002 		0.001
v 63.4 		-36.074 		0
v 49.5 		-34.003 		1
v 49.4 		-34.002 		1
v 77.486 		-40.966 		30
v 61.637 		-34.566 		0
v 62.044 		-34.669 		0
v 62.452 		-34.775 		0
v 62.859 		-34.884 		0
v 63.266 		-34.996 		0
v 49.8 		-34.006 		0
v 61.4 		-35.538 		0
v 61 		-35.44 		0
v 60.6 		-35.346 		0
v 60.2 		-35.254 		0
v 59.8 		-35.166 		0
v 49.4 		-34.002 		0
v 59.4 		-35.082 		0
v 59.6 		-34.102 		0
v 60.007 		-34.188 		0
v 60.415 		-34.278 		0
v 60.822 		-34.371 		0
v 61.23 		-34.467 		0
v 58.6 		-34.922 		0
v 58.2 		-34.846 		0
v 59 		-35 		0
v 49.812 		-33.006 		0
v 57.4 		-34.706 		0
v 49.404 		-33.002 		0
v 57.8 		-34.774 		0
v 57.562 		-33.719 		0
v 57.97 		-33.789 		0
v 58.377 		-33.862 		0
v 58.785 		-33.939 		0
v 59.192 		-34.019 		0
v 44.916 		-33.164 		0
v 57 		-34.64 		0
v 56.6 		-34.578 		0
v 44.508 		-33.198 		0
v 55.4 		-34.41 		0
v 44.1 		-33.235 		0
v 43.693 		-33.276 		0
v 56.2 		-34.518 		0
v 43.285 		-33.32 		0
v 55.8 		-34.462 		0
v 43.4 		-34.314 		0
v 43.8 		-34.27 		0
v 55.523 		-33.417 		0
v 55.931 		-33.471 		0
v 56.339 		-33.528 		0
v 56.746 		-33.588 		0
v 57.154 		-33.652 		0
v 44.2 		-34.23 		0
v 44.6 		-34.194 		0
v 48.18 		-33.007 		30
v 48.588 		-33.002 		30
v 55 		-34.36 		0
v 47.772 		-33.015 		30
v 54.6 		-34.314 		0
v 48.996 		-33 		30
v 54.2 		-34.27 		0
v 53.8 		-34.23 		0
v 45 		-34.16 		0
v 47.364 		-33.026 		30
v 53.4 		-34.194 		0
v 42.877 		-33.368 		0
v 49 		-34 		30
v 53.484 		-33.197 		0
v 53.892 		-33.235 		0
v 54.3 		-33.275 		0
v 54.707 		-33.319 		0
v 55.115 		-33.367 		0
v 42.469 		-33.418 		0
v 48.6 		-34.002 		30
v 48.2 		-34.006 		30
v 42.061 		-33.472 		0
v 47.8 		-34.014 		30
v 41.654 		-33.529 		0
v 41.246 		-33.59 		0
v 47.4 		-34.026 		30
v 42.6 		-34.41 		0
v 43 		-34.36 		0
v 42.2 		-34.462 		0
v 45.732 		-33.105 		30
v 41.8 		-34.518 		0
v 45.324 		-33.132 		30
v 46.14 		-33.08 		30
v 41.4 		-34.578 		0
v 46.548 		-33.059 		30
v 41 		-34.64 		0
v 46.956 		-33.041 		30
v 45.8 		-34.102 		30
v 45.4 		-34.13 		30
v 46.2 		-34.078 		30
v 47 		-34.04 		30
v 46.6 		-34.058 		30
v 22.2 		-41.182 		30
v 21.8 		-41.398 		30
v 21.4 		-41.618 		30
v 21 		-41.84 		30
v 20.6 		-42.066 		30
v 22.6 		-40.97 		30
v 20.509 		-40.969 		30
v 40.2 		-34.774 		0
v 39.8 		-34.846 		0
v 39 		-35 		0
v 19.8 		-42.526 		30
v 19.4 		-42.762 		30
v 40.6 		-34.706 		0
v 20.2 		-42.294 		30
v 39.4 		-34.922 		0
v 19 		-43 		30
v 39.208 		-33.94 		0
v 39.615 		-33.864 		0
v 40.023 		-33.79 		0
v 40.43 		-33.72 		0
v 40.838 		-33.653 		0
v 18.488 		-42.141 		30
v 18.888 		-41.903 		30
v 38.6 		-35.082 		0
v 20.103 		-41.198 		30
v 38.2 		-35.166 		0
v 37.8 		-35.254 		0
v 37.4 		-35.346 		0
v 37 		-35.44 		0
v 37.17 		-34.372 		0
v 37.578 		-34.279 		0
v 37.985 		-34.19 		0
v 38.393 		-34.103 		0
v 38.8 		-34.02 		0
v 35.4 		-35.85 		0
v 35 		-35.96 		0
v 36.6 		-35.538 		0
v 36.2 		-35.638 		0
v 35.8 		-35.742 		0
v 35.134 		-34.886 		0
v 35.541 		-34.776 		0
v 35.948 		-34.671 		0
v 36.356 		-34.568 		0
v 36.763 		-34.469 		0
v 34.6 		-36.074 		0
v 34.2 		-36.19 		0
v 33.8 		-36.31 		0
v 33.4 		-36.434 		0
v 19.698 		-41.429 		30
v 33 		-36.56 		0
v 19.293 		-41.664 		30
v 33.099 		-35.48 		0
v 33.506 		-35.355 		0
v 33.913 		-35.233 		0
v 34.32 		-35.114 		0
v 34.727 		-34.998 		0
v 32.6 		-36.69 		0
v 32.2 		-36.822 		0
v 43.285 		-33.32 		30
v 44.916 		-33.164 		30
v 29.438 		-36.754 		0
v 29.845 		-36.6 		0
v 30.251 		-36.448 		0
v 30.658 		-36.3 		0
v 31.065 		-36.156 		0
v 31.471 		-36.014 		0
v 31.878 		-35.876 		0
v 32.285 		-35.741 		0
v 32.692 		-35.609 		0
v 44.508 		-33.198 		30
v 29.4 		-37.842 		0
v 29 		-38 		0
v 30.2 		-37.534 		0
v 29.8 		-37.686 		0
v 44.1 		-33.235 		30
v 43.693 		-33.276 		30
v 31 		-37.24 		0
v 30.6 		-37.386 		0
v 31.4 		-37.098 		0
v 43.8 		-34.27 		30
v 43.4 		-34.314 		30
v 44.6 		-34.194 		30
v 44.2 		-34.23 		30
v 31.8 		-36.958 		0
v 29.032 		-36.912 		0
v 28.2 		-38.326 		0
v 27.8 		-38.494 		0
v 27.4 		-38.666 		0
v 27 		-38.84 		0
v 45 		-34.16 		30
v 28.6 		-38.162 		0
v 42.877 		-33.368 		30
v 42.469 		-33.418 		30
v 42.061 		-33.472 		30
v 27 		-37.749 		0
v 27.407 		-37.575 		0
v 41.654 		-33.529 		30
v 27.813 		-37.404 		0
v 28.219 		-37.237 		0
v 28.625 		-37.073 		0
v 41.246 		-33.59 		30
v 24.97 		-38.667 		0
v 25.376 		-38.477 		0
v 25.782 		-38.29 		0
v 26.188 		-38.106 		0
v 26.594 		-37.926 		0
v 24.6 		-39.954 		0
v 43 		-34.36 		30
v 42.6 		-34.41 		30
v 25 		-39.76 		0
v 26.6 		-39.018 		0
v 42.2 		-34.462 		30
v 26.2 		-39.198 		0
v 25.8 		-39.382 		0
v 25.4 		-39.57 		0
v 41.8 		-34.518 		30
v 41.4 		-34.578 		30
v 24.564 		-38.86 		0
v 23.8 		-40.35 		0
v 23.4 		-40.554 		0
v 41 		-34.64 		30
v 23 		-40.76 		0
v 24.2 		-40.15 		0
v 20.914 		-40.744 		0
v 21.319 		-40.521 		0
v 21.725 		-40.302 		0
v 22.13 		-40.087 		0
v 22.536 		-39.874 		0
v 22.941 		-39.665 		0
v 23.347 		-39.459 		0
v 23.753 		-39.256 		0
v 24.159 		-39.056 		0
v 22.2 		-41.182 		0
v 21.8 		-41.398 		0
v 21.4 		-41.618 		0
v 21 		-41.84 		0
v 20.6 		-42.066 		0
v 22.6 		-40.97 		0
v 20.509 		-40.969 		0
v 19.8 		-42.526 		0
v 19.4 		-42.762 		0
v 19 		-43 		0
v 20.2 		-42.294 		0
v 18.488 		-42.141 		0
v 18.888 		-41.903 		0
v 19.293 		-41.664 		0
v 19.698 		-41.429 		0
v 20.103 		-41.198 		0
v 73.8 		-40.15 		30
v 74.2 		-40.35 		30
v 75 		-40.76 		30
v 74.6 		-40.554 		30
v 77.081 		-40.741 		30
v 76.675 		-40.518 		30
v 76.27 		-40.3 		30
v 75.864 		-40.084 		30
v 75.459 		-39.871 		30
v 75.053 		-39.662 		30
v 74.647 		-39.456 		30
v 74.241 		-39.253 		30
v 73.836 		-39.053 		30
v 70.2 		-38.494 		30
v 70.6 		-38.666 		30
v 69.8 		-38.326 		30
v 71 		-38.84 		30
v 56.746 		-33.588 		30
v 57.154 		-33.652 		30
v 56.339 		-33.528 		30
v 55.931 		-33.471 		30
v 57 		-34.64 		30
v 56.6 		-34.578 		30
v 73.43 		-38.857 		30
v 73.024 		-38.664 		30
v 72.618 		-38.474 		30
v 72.212 		-38.287 		30
v 71.806 		-38.104 		30
v 71.4 		-37.923 		30
v 70.993 		-37.746 		30
v 70.587 		-37.572 		30
v 70.181 		-37.402 		30
v 69.775 		-37.234 		30
v 55.4 		-34.41 		30
v 72.2 		-39.382 		30
v 72.6 		-39.57 		30
v 73.4 		-39.954 		30
v 56.2 		-34.518 		30
v 71.4 		-39.018 		30
v 71.8 		-39.198 		30
v 55.8 		-34.462 		30
v 73 		-39.76 		30
v 55.523 		-33.417 		30
v 65.8 		-36.822 		30
v 55 		-34.36 		30
v 68.555 		-36.752 		30
v 68.149 		-36.597 		30
v 67.742 		-36.446 		30
v 67.335 		-36.298 		30
v 54.6 		-34.314 		30
v 66.929 		-36.153 		30
v 66.522 		-36.012 		30
v 66.115 		-35.873 		30
v 65.708 		-35.738 		30
v 54.2 		-34.27 		30
v 66.6 		-37.098 		30
v 67 		-37.24 		30
v 53.8 		-34.23 		30
v 66.2 		-36.958 		30
v 68.6 		-37.842 		30
v 53.4 		-34.194 		30
v 69 		-38 		30
v 68.2 		-37.686 		30
v 67.4 		-37.386 		30
v 69.4 		-38.162 		30
v 53.892 		-33.235 		30
v 53.484 		-33.197 		30
v 54.3 		-33.275 		30
v 67.8 		-37.534 		30
v 55.115 		-33.367 		30
v 54.707 		-33.319 		30
v 69.368 		-37.07 		30
v 68.962 		-36.909 		30
v 63.8 		-36.19 		30
v 64.6 		-36.434 		30
v 65 		-36.56 		30
v 64.2 		-36.31 		30
v 65.4 		-36.69 		30
v 65.301 		-35.606 		30
v 64.894 		-35.478 		30
v 64.487 		-35.353 		30
v 64.08 		-35.23 		30
v 63.673 		-35.112 		30
v 61.8 		-35.638 		30
v 62.6 		-35.85 		30
v 63 		-35.96 		30
v 62.2 		-35.742 		30
v 63.4 		-36.074 		30
v 63.266 		-34.996 		30
v 62.859 		-34.884 		30
v 62.452 		-34.775 		30
v 62.044 		-34.669 		30
v 61.637 		-34.566 		30
v 61.4 		-35.538 		30
v 61 		-35.44 		30
v 60.6 		-35.346 		30
v 59.8 		-35.166 		30
v 60.2 		-35.254 		30
v 59.4 		-35.082 		30
v 61.23 		-34.467 		30
v 60.822 		-34.371 		30
v 60.415 		-34.278 		30
v 60.007 		-34.188 		30
v 59.6 		-34.102 		30
v 58.2 		-34.846 		30
v 58.6 		-34.922 		30
v 57.4 		-34.706 		30
v 59 		-35 		30
v 57.8 		-34.774 		30
v 59.192 		-34.019 		30
v 58.785 		-33.939 		30
v 58.377 		-33.862 		30
v 57.97 		-33.789 		30
v 57.562 		-33.719 		30
v 51.4 		-34.058 		30
v 53 		-34.16 		30
v 52.2 		-34.102 		30
v 52.6 		-34.13 		30
v 51.8 		-34.078 		30
v 53.076 		-33.163 		30
v 52.668 		-33.132 		30
v 52.26 		-33.104 		30
v 51.852 		-33.08 		30
v 51.444 		-33.059 		30
v 51 		-34.04 		30
v 50.6 		-34.026 		30
v 50.2 		-34.014 		30
v 49.4 		-34.002 		30
v 49.8 		-34.006 		30
v 49.404 		-33.002 		30
v 51.036 		-33.041 		30
v 50.628 		-33.026 		30
v 50.22 		-33.015 		30
v 49.812 		-33.006 		30
v 31.471 		-36.014 		30
v 31.878 		-35.876 		30
v 29.845 		-36.6 		30
v 29.438 		-36.754 		30
v 39.8 		-34.846 		30
v 40.2 		-34.774 		30
v 32.285 		-35.741 		30
v 39 		-35 		30
v 40.6 		-34.706 		30
v 32.6 		-36.69 		30
v 32.2 		-36.822 		30
v 39.4 		-34.922 		30
v 40.838 		-33.653 		30
v 40.43 		-33.72 		30
v 40.023 		-33.79 		30
v 39.615 		-33.864 		30
v 39.208 		-33.94 		30
v 30.658 		-36.3 		30
v 30.251 		-36.448 		30
v 37.8 		-35.254 		30
v 38.2 		-35.166 		30
v 37.4 		-35.346 		30
v 37 		-35.44 		30
v 32.692 		-35.609 		30
v 38.6 		-35.082 		30
v 31.065 		-36.156 		30
v 38.8 		-34.02 		30
v 38.393 		-34.103 		30
v 37.985 		-34.19 		30
v 37.578 		-34.279 		30
v 37.17 		-34.372 		30
v 29.4 		-37.842 		30
v 29 		-38 		30
v 35 		-35.96 		30
v 30.2 		-37.534 		30
v 29.8 		-37.686 		30
v 35.4 		-35.85 		30
v 36.2 		-35.638 		30
v 36.6 		-35.538 		30
v 31 		-37.24 		30
v 30.6 		-37.386 		30
v 35.8 		-35.742 		30
v 31.4 		-37.098 		30
v 36.763 		-34.469 		30
v 36.356 		-34.568 		30
v 35.948 		-34.671 		30
v 35.541 		-34.776 		30
v 35.134 		-34.886 		30
v 31.8 		-36.958 		30
v 34.6 		-36.074 		30
v 34.2 		-36.19 		30
v 29.032 		-36.912 		30
v 33.4 		-36.434 		30
v 33.8 		-36.31 		30
v 33 		-36.56 		30
v 28.6 		-38.162 		30
v 28.2 		-38.326 		30
v 27.8 		-38.494 		30
v 34.727 		-34.998 		30
v 34.32 		-35.114 		30
v 33.913 		-35.233 		30
v 33.506 		-35.355 		30
v 33.099 		-35.48 		30
v 27.4 		-38.666 		30
v 27 		-38.84 		30
v 28.219 		-37.237 		30
v 28.625 		-37.073 		30
v 27.813 		-37.404 		30
v 27.407 		-37.575 		30
v 27 		-37.749 		30
v 26.594 		-37.926 		30
v 26.188 		-38.106 		30
v 25.376 		-38.477 		30
v 24.97 		-38.667 		30
v 25.782 		-38.29 		30
v 24.6 		-39.954 		30
v 25 		-39.76 		30
v 26.2 		-39.198 		30
v 25.8 		-39.382 		30
v 25.4 		-39.57 		30
v 26.6 		-39.018 		30
v 23.4 		-40.554 		30
v 23.8 		-40.35 		30
v 23 		-40.76 		30
v 24.2 		-40.15 		30
v 24.564 		-38.86 		30
v 24.159 		-39.056 		30
v 23.753 		-39.256 		30
v 23.347 		-39.459 		30
v 22.941 		-39.665 		30
v 22.536 		-39.874 		30
v 22.13 		-40.087 		30
v 21.725 		-40.302 		30
v 21.319 		-40.521 		30
v 20.914 		-40.744 		30
# 618 vertices

g group_0_11107152

usemtl color_11107152
s 0

f 3 	4 	6
f 6 	7 	3
f 11 	9 	19
f 20 	11 	19
f 21 	15 	20
f 22 	13 	21
f 11 	20 	15
f 23 	111 	22
f 24 	110 	23
f 25 	115 	24
f 15 	21 	13
f 18 	19 	9
f 9 	51 	18
f 91 	219 	84
f 40 	41 	29
f 32 	29 	41
f 42 	32 	41
f 43 	53 	42
f 44 	52 	43
f 29 	30 	40
f 45 	48 	44
f 46 	47 	45
f 39 	40 	30
f 30 	31 	39
f 38 	39 	31
f 31 	81 	38
f 46 	17 	54
f 17 	18 	51
f 52 	44 	48
f 53 	43 	52
f 32 	42 	53
f 57 	59 	60
f 57 	60 	61
f 47 	46 	54
f 48 	45 	47
f 51 	54 	17
f 60 	59 	64
f 60 	64 	65
f 79 	83 	71
f 72 	79 	71
f 69 	70 	66
f 73 	78 	72
f 74 	88 	73
f 75 	92 	74
f 66 	131 	69
f 68 	69 	131
f 146 	3 	57
f 145 	3 	146
f 66 	70 	83
f 64 	84 	65
f 79 	72 	78
f 85 	37 	81
f 86 	96 	85
f 37 	38 	81
f 75 	95 	87
f 92 	75 	87
f 91 	6 	90
f 88 	74 	92
f 78 	73 	88
f 70 	71 	83
f 86 	87 	95
f 96 	86 	95
f 37 	85 	96
f 101 	106 	98
f 97 	98 	102
f 104 	105 	107
f 101 	107 	105
f 106 	101 	105
f 102 	98 	106
f 111 	23 	110
f 122 	103 	117
f 117 	120 	122
f 13 	22 	111
f 25 	122 	120
f 107 	114 	104
f 103 	104 	114
f 114 	117 	103
f 25 	120 	115
f 110 	24 	115
f 135 	136 	129
f 137 	138 	126
f 126 	128 	137
f 136 	137 	128
f 128 	129 	136
f 518 	156 	132
f 134 	135 	147
f 129 	147 	135
f 131 	124 	68
f 138 	68 	124
f 124 	126 	138
f 144 	143 	153
f 152 	153 	143
f 84 	6 	91
f 155 	134 	140
f 140 	141 	155
f 147 	140 	134
f 154 	155 	141
f 141 	144 	154
f 153 	154 	144
f 166 	167 	160
f 160 	161 	166
f 146 	162 	145
f 156 	145 	162
f 156 	518 	148
f 148 	145 	156
f 146 	57 	61
f 146 	61 	162
f 168 	151 	158
f 157 	158 	151
f 151 	152 	157
f 143 	157 	152
f 158 	159 	168
f 167 	168 	159
f 159 	160 	167
f 165 	166 	161
f 161 	163 	165
f 164 	165 	163
f 170 	175 	178
f 59 	57 	7
f 148 	149 	4
f 4 	145 	148
f 169 	170 	179
f 178 	179 	170
f 180 	164 	171
f 163 	171 	164
f 171 	169 	180
f 179 	180 	169
f 177 	178 	175
f 175 	173 	177
f 176 	177 	173
f 6 	4 	90
f 183 	197 	182
f 182 	176 	173
f 188 	196 	183
f 7 	57 	3
f 145 	4 	3
f 196 	188 	195
f 188 	190 	195
f 197 	183 	196
f 176 	182 	197
f 194 	195 	190
f 190 	185 	194
f 193 	194 	185
f 204 	217 	202
f 206 	216 	204
f 185 	202 	193
f 214 	215 	207
f 206 	207 	215
f 216 	206 	215
f 207 	210 	214
f 217 	204 	216
f 193 	202 	217
f 213 	214 	210
f 210 	56 	213
f 80 	213 	56
f 104 	8 	105
f 104 	103 	8
f 82 	89 	58
f 58 	127 	82
f 139 	82 	127
f 77 	76 	62
f 63 	62 	76
f 80 	63 	76
f 62 	67 	77
f 56 	63 	80
f 89 	77 	67
f 67 	58 	89
f 130 	132 	142
f 133 	142 	132
f 111 	27 	28
f 127 	130 	139
f 142 	139 	130
f 133 	132 	156
f 174 	172 	162
f 64 	59 	7
f 64 	7 	84
f 6 	84 	7
f 149 	90 	4
f 133 	156 	172
f 156 	162 	172
f 162 	61 	174
f 61 	60 	55
f 55 	174 	61
f 395 	24 	396
f 60 	65 	49
f 50 	49 	65
f 49 	55 	60
f 65 	100 	50
f 100 	99 	93
f 100 	93 	50
f 94 	93 	99
f 99 	123 	94
f 13 	393 	15
f 118 	208 	109
f 15 	393 	391
f 108 	112 	119
f 116 	94 	123
f 121 	119 	112
f 125 	121 	113
f 112 	113 	121
f 116 	125 	113
f 123 	125 	116
f 119 	118 	108
f 109 	108 	118
f 23 	22 	396
f 191 	227 	189
f 399 	19 	400
f 211 	189 	227
f 400 	19 	18
f 186 	184 	198
f 199 	198 	184
f 184 	181 	199
f 208 	199 	181
f 181 	109 	208
f 198 	192 	186
f 187 	186 	192
f 192 	191 	187
f 189 	187 	191
f 227 	226 	211
f 230 	221 	228
f 228 	218 	226
f 235 	224 	233
f 233 	223 	230
f 221 	230 	223
f 218 	228 	221
f 224 	223 	233
f 211 	226 	218
f 258 	259 	256
f 258 	256 	251
f 254 	249 	261
f 261 	262 	254
f 260 	261 	249
f 235 	254 	262
f 224 	235 	262
f 249 	250 	260
f 259 	260 	250
f 250 	256 	259
f 265 	267 	274
f 270 	271 	269
f 273 	274 	267
f 268 	273 	267
f 271 	272 	269
f 265 	275 	251
f 275 	265 	274
f 258 	251 	275
f 273 	268 	272
f 268 	269 	272
f 282 	283 	280
f 280 	276 	282
f 278 	279 	284
f 284 	285 	278
f 270 	278 	285
f 271 	270 	285
f 283 	284 	279
f 279 	280 	283
f 281 	282 	276
f 281 	276 	277
f 286 	297 	277
f 287 	296 	286
f 294 	295 	288
f 289 	294 	288
f 291 	293 	289
f 293 	294 	289
f 296 	287 	295
f 287 	288 	295
f 297 	286 	296
f 281 	277 	297
f 298 	310 	291
f 320 	318 	306
f 299 	309 	298
f 306 	307 	320
f 325 	320 	307
f 307 	308 	325
f 299 	325 	308
f 309 	299 	308
f 310 	298 	309
f 293 	291 	310
f 341 	326 	313
f 326 	302 	312
f 312 	313 	326
f 315 	312 	302
f 305 	306 	318
f 318 	319 	305
f 314 	315 	303
f 302 	303 	315
f 304 	305 	319
f 303 	304 	314
f 319 	314 	304
f 345 	346 	354
f 344 	345 	355
f 313 	332 	341
f 337 	339 	328
f 336 	337 	329
f 354 	355 	345
f 328 	329 	337
f 327 	328 	339
f 327 	340 	332
f 340 	327 	339
f 341 	332 	340
f 347 	336 	330
f 329 	330 	336
f 352 	354 	346
f 330 	352 	347
f 348 	359 	351
f 359 	343 	351
f 343 	344 	356
f 356 	351 	343
f 355 	356 	344
f 346 	347 	352
f 367 	368 	374
f 379 	374 	368
f 361 	363 	370
f 370 	371 	361
f 360 	361 	371
f 371 	372 	360
f 364 	360 	372
f 372 	373 	364
f 348 	364 	373
f 359 	348 	373
f 369 	370 	363
f 363 	379 	369
f 368 	369 	379
f 380 	365 	377
f 377 	378 	380
f 384 	389 	378
f 389 	380 	378
f 376 	377 	365
f 365 	366 	376
f 375 	376 	366
f 374 	375 	367
f 366 	367 	375
f 385 	386 	383
f 386 	263 	264
f 384 	381 	388
f 387 	388 	381
f 389 	384 	388
f 381 	382 	387
f 386 	387 	382
f 382 	383 	386
f 391 	400 	390
f 386 	264 	292
f 397 	398 	392
f 393 	392 	398
f 398 	399 	393
f 391 	393 	399
f 400 	391 	399
f 401 	390 	400
f 402 	426 	401
f 392 	28 	397
f 396 	397 	28
f 28 	27 	396
f 403 	420 	405
f 404 	419 	403
f 417 	418 	406
f 406 	428 	417
f 416 	417 	428
f 404 	406 	418
f 419 	404 	418
f 420 	403 	419
f 421 	405 	420
f 422 	454 	421
f 428 	429 	416
f 415 	416 	429
f 414 	415 	424
f 390 	401 	426
f 424 	425 	414
f 429 	424 	415
f 413 	414 	425
f 425 	431 	413
f 402 	413 	431
f 431 	426 	402
f 438 	440 	445
f 448 	445 	440
f 440 	441 	448
f 433 	448 	441
f 442 	433 	441
f 445 	446 	438
f 437 	438 	446
f 451 	454 	422
f 405 	421 	454
f 449 	451 	461
f 422 	461 	451
f 452 	449 	462
f 461 	462 	449
f 446 	453 	437
f 436 	437 	453
f 453 	458 	436
f 435 	436 	458
f 458 	452 	435
f 462 	435 	452
f 12 	1 	14
f 1 	2 	14
f 16 	14 	2
f 2 	5 	16
f 10 	33 	8
f 26 	16 	5
f 403 	30 	29
f 34 	36 	394
f 150 	394 	36
f 395 	396 	27
f 26 	5 	8
f 33 	26 	8
f 35 	33 	10
f 36 	35 	150
f 10 	150 	35
f 394 	395 	34
f 27 	34 	395
f 468 	469 	464
f 464 	465 	468
f 442 	467 	433
f 463 	466 	470
f 470 	471 	463
f 472 	477 	471
f 466 	464 	469
f 478 	475 	472
f 469 	470 	466
f 443 	468 	465
f 443 	465 	467
f 442 	443 	467
f 476 	480 	473
f 474 	479 	476
f 477 	472 	475
f 475 	478 	474
f 481 	473 	480
f 480 	476 	479
f 482 	483 	481
f 479 	474 	478
f 463 	471 	477
f 473 	481 	483
f 484 	483 	482
f 221 	338 	335
f 490 	491 	487
f 486 	487 	491
f 492 	486 	491
f 493 	488 	492
f 486 	492 	488
f 487 	485 	490
f 489 	490 	485
f 485 	484 	489
f 482 	489 	484
f 195 	410 	409
f 494 	495 	500
f 497 	488 	493
f 502 	498 	501
f 498 	494 	501
f 500 	501 	494
f 502 	503 	496
f 496 	498 	502
f 499 	500 	495
f 495 	497 	499
f 493 	499 	497
f 408 	411 	503
f 412 	411 	408
f 496 	503 	411
f 410 	432 	423
f 434 	423 	432
f 459 	434 	432
f 430 	427 	409
f 407 	409 	427
f 427 	412 	407
f 408 	407 	412
f 409 	410 	430
f 423 	430 	410
f 459 	460 	439
f 439 	434 	459
f 455 	447 	457
f 447 	444 	457
f 456 	450 	455
f 509 	505 	456
f 447 	455 	450
f 460 	457 	444
f 444 	439 	460
f 450 	456 	505
f 508 	512 	504
f 102 	106 	1
f 513 	504 	512
f 512 	508 	511
f 510 	511 	506
f 520 	514 	513
f 506 	511 	508
f 506 	507 	510
f 509 	510 	507
f 509 	507 	505
f 100 	220 	222
f 504 	513 	514
f 1 	12 	102
f 520 	521 	515
f 515 	514 	520
f 5 	2 	105
f 5 	105 	8
f 518 	523 	517
f 521 	522 	516
f 516 	515 	521
f 518 	516 	522
f 522 	523 	518
f 519 	517 	523
f 519 	212 	517
f 219 	212 	205
f 220 	219 	201
f 220 	200 	222
f 203 	209 	225
f 200 	220 	201
f 203 	222 	200
f 225 	209 	240
f 225 	222 	203
f 205 	201 	219
f 519 	205 	212
f 28 	13 	111
f 239 	232 	237
f 234 	232 	239
f 35 	117 	33
f 236 	234 	241
f 241 	240 	236
f 236 	240 	209
f 117 	35 	36
f 238 	237 	229
f 229 	231 	238
f 301 	331 	231
f 238 	231 	331
f 229 	237 	232
f 239 	241 	234
f 311 	316 	324
f 324 	323 	311
f 321 	324 	316
f 300 	322 	317
f 349 	322 	300
f 322 	321 	317
f 316 	317 	321
f 301 	311 	323
f 301 	323 	331
f 10 	8 	103
f 333 	334 	350
f 103 	150 	10
f 350 	349 	333
f 300 	333 	349
f 12 	14 	98
f 12 	98 	97
f 353 	350 	334
f 98 	14 	16
f 338 	342 	358
f 362 	358 	342
f 342 	536 	362
f 532 	362 	536
f 358 	357 	338
f 335 	338 	357
f 357 	353 	335
f 334 	335 	353
f 16 	26 	107
f 114 	107 	33
f 529 	532 	537
f 536 	537 	532
f 36 	120 	117
f 539 	540 	535
f 535 	528 	539
f 531 	535 	540
f 538 	539 	528
f 528 	529 	538
f 537 	538 	529
f 551 	552 	544
f 25 	394 	150
f 550 	551 	548
f 544 	548 	551
f 25 	24 	395
f 228 	350 	353
f 545 	543 	553
f 23 	396 	24
f 391 	9 	11
f 567 	546 	554
f 553 	554 	545
f 543 	544 	552
f 552 	553 	543
f 540 	550 	531
f 548 	531 	550
f 560 	571 	557
f 391 	11 	15
f 545 	554 	546
f 567 	568 	562
f 562 	546 	567
f 525 	308 	524
f 569 	570 	565
f 565 	561 	569
f 571 	560 	570
f 568 	569 	561
f 565 	570 	560
f 561 	562 	568
f 399 	21 	20
f 571 	582 	557
f 20 	19 	399
f 582 	583 	573
f 573 	557 	582
f 574 	573 	583
f 584 	585 	577
f 576 	577 	585
f 585 	586 	576
f 578 	576 	586
f 577 	574 	584
f 583 	584 	574
f 533 	578 	547
f 533 	530 	534
f 534 	525 	572
f 530 	533 	547
f 525 	534 	530
f 524 	572 	525
f 549 	566 	524
f 541 	563 	549
f 542 	564 	541
f 527 	559 	526
f 526 	558 	542
f 586 	547 	578
f 525 	309 	308
f 559 	527 	555
f 527 	575 	555
f 558 	526 	559
f 564 	542 	558
f 563 	541 	564
f 566 	549 	563
f 572 	524 	566
f 590 	589 	579
f 589 	591 	580
f 587 	581 	592
f 593 	587 	592
f 591 	592 	581
f 581 	580 	591
f 580 	579 	589
f 575 	590 	556
f 556 	555 	575
f 579 	556 	590
f 407 	408 	197
f 594 	588 	593
f 595 	604 	594
f 598 	601 	595
f 596 	602 	598
f 597 	609 	600
f 601 	598 	602
f 603 	597 	600
f 602 	596 	603
f 599 	600 	609
f 587 	593 	588
f 588 	594 	604
f 604 	595 	601
f 597 	603 	596
f 606 	608 	611
f 607 	614 	247
f 610 	611 	608
f 608 	599 	610
f 416 	44 	43
f 43 	42 	416
f 611 	612 	606
f 605 	606 	612
f 613 	605 	612
f 614 	607 	613
f 615 	247 	614
f 616 	242 	615
f 605 	613 	607
f 609 	610 	599
f 248 	245 	618
f 243 	617 	244
f 244 	618 	245
f 245 	248 	246
f 248 	266 	246
f 403 	31 	30
f 618 	244 	617
f 242 	616 	243
f 247 	615 	242
f 617 	243 	616
f 252 	292 	253
f 253 	264 	257
f 39 	420 	419
f 264 	253 	292
f 246 	266 	255
f 290 	255 	266
f 255 	290 	252
f 292 	252 	290
f 263 	257 	264
f 321 	192 	198
f 394 	25 	395
f 356 	355 	603
f 9 	390 	51
f 9 	391 	390
f 28 	392 	13
f 13 	392 	393
f 335 	218 	221
f 401 	18 	17
f 401 	17 	402
f 396 	22 	397
f 398 	397 	21
f 22 	21 	397
f 21 	399 	398
f 400 	18 	401
f 193 	459 	432
f 70 	441 	440
f 407 	197 	196
f 547 	310 	530
f 319 	318 	564
f 319 	564 	558
f 325 	534 	572
f 47 	424 	48
f 407 	196 	195
f 48 	424 	52
f 77 	511 	76
f 77 	512 	511
f 44 	416 	415
f 41 	40 	419
f 414 	45 	415
f 149 	517 	212
f 40 	39 	419
f 149 	148 	517
f 207 	444 	447
f 278 	270 	562
f 108 	229 	232
f 195 	409 	407
f 600 	351 	603
f 209 	94 	236
f 505 	56 	210
f 435 	75 	74
f 329 	581 	587
f 427 	430 	190
f 329 	587 	588
f 72 	71 	440
f 240 	241 	125
f 430 	423 	190
f 185 	190 	423
f 71 	70 	440
f 75 	435 	462
f 204 	434 	439
f 451 	449 	85
f 449 	87 	86
f 454 	85 	81
f 96 	95 	462
f 368 	615 	614
f 351 	600 	599
f 95 	75 	462
f 561 	565 	279
f 2 	1 	106
f 368 	616 	615
f 366 	617 	616
f 183 	411 	412
f 526 	303 	527
f 188 	183 	412
f 188 	412 	427
f 17 	46 	402
f 527 	302 	575
f 190 	188 	427
f 309 	525 	530
f 197 	408 	503
f 193 	432 	410
f 217 	459 	193
f 291 	578 	533
f 305 	542 	541
f 542 	303 	526
f 204 	439 	444
f 26 	33 	107
f 530 	310 	309
f 524 	306 	549
f 210 	450 	505
f 541 	549 	305
f 306 	305 	549
f 210 	447 	450
f 214 	456 	455
f 310 	547 	293
f 455 	457 	214
f 555 	312 	559
f 217 	216 	459
f 102 	12 	97
f 563 	564 	318
f 318 	566 	563
f 2 	106 	105
f 579 	332 	556
f 611 	610 	372
f 62 	507 	506
f 325 	572 	566
f 98 	16 	101
f 16 	107 	101
f 27 	111 	110
f 510 	76 	511
f 110 	115 	27
f 34 	27 	115
f 33 	117 	114
f 44 	415 	45
f 372 	371 	611
f 36 	34 	120
f 115 	120 	34
f 29 	404 	403
f 150 	103 	122
f 122 	25 	150
f 406 	404 	32
f 336 	593 	592
f 375 	242 	243
f 590 	575 	341
f 377 	244 	245
f 377 	245 	246
f 41 	418 	42
f 478 	472 	155
f 537 	262 	261
f 336 	594 	593
f 248 	365 	380
f 538 	537 	260
f 261 	260 	537
f 538 	260 	259
f 385 	257 	263
f 249 	529 	250
f 49 	200 	201
f 62 	506 	508
f 413 	402 	46
f 201 	205 	49
f 354 	604 	601
f 529 	249 	254
f 203 	93 	94
f 209 	203 	94
f 74 	436 	435
f 581 	328 	580
f 76 	510 	509
f 72 	440 	438
f 220 	84 	219
f 273 	552 	274
f 327 	332 	580
f 579 	580 	332
f 100 	222 	225
f 341 	589 	590
f 127 	504 	514
f 551 	275 	274
f 514 	515 	127
f 212 	219 	90
f 91 	90 	219
f 339 	592 	591
f 174 	55 	519
f 212 	90 	149
f 68 	138 	443
f 108 	231 	229
f 575 	326 	341
f 181 	301 	231
f 347 	595 	594
f 596 	344 	597
f 272 	271 	554
f 595 	345 	598
f 554 	271 	285
f 248 	380 	266
f 389 	266 	380
f 345 	596 	598
f 389 	388 	266
f 594 	336 	347
f 523 	172 	519
f 474 	144 	141
f 278 	562 	279
f 602 	355 	601
f 96 	462 	461
f 280 	279 	565
f 66 	433 	131
f 356 	603 	351
f 422 	37 	461
f 565 	276 	280
f 136 	470 	469
f 284 	283 	568
f 468 	443 	138
f 138 	469 	468
f 29 	32 	404
f 403 	405 	31
f 467 	131 	433
f 41 	419 	418
f 119 	237 	238
f 119 	239 	237
f 417 	42 	418
f 135 	471 	136
f 246 	255 	384
f 252 	381 	255
f 125 	241 	239
f 475 	474 	140
f 386 	385 	263
f 295 	584 	583
f 143 	473 	483
f 47 	425 	424
f 143 	144 	473
f 140 	477 	475
f 311 	301 	184
f 561 	279 	562
f 129 	463 	477
f 184 	316 	311
f 317 	316 	187
f 406 	32 	428
f 187 	300 	317
f 154 	480 	479
f 54 	51 	431
f 534 	299 	533
f 154 	479 	478
f 47 	54 	425
f 431 	425 	54
f 568 	285 	284
f 481 	151 	482
f 45 	414 	46
f 413 	46 	414
f 326 	575 	302
f 42 	417 	416
f 305 	304 	542
f 277 	573 	286
f 304 	303 	542
f 574 	287 	573
f 286 	573 	287
f 218 	334 	211
f 617 	365 	618
f 287 	574 	288
f 405 	454 	31
f 365 	248 	618
f 218 	335 	334
f 533 	298 	291
f 295 	294 	585
f 555 	556 	312
f 228 	353 	357
f 583 	297 	296
f 420 	39 	421
f 38 	421 	39
f 296 	295 	583
f 294 	293 	585
f 173 	175 	496
f 422 	421 	37
f 38 	37 	421
f 558 	314 	319
f 93 	203 	200
f 426 	51 	390
f 566 	320 	325
f 52 	429 	53
f 428 	53 	429
f 426 	431 	51
f 301 	181 	184
f 588 	330 	329
f 52 	424 	429
f 191 	321 	322
f 53 	428 	32
f 198 	323 	324
f 324 	321 	198
f 589 	340 	591
f 493 	164 	180
f 199 	331 	323
f 131 	467 	465
f 211 	333 	300
f 333 	211 	334
f 180 	499 	493
f 116 	113 	236
f 469 	137 	136
f 370 	613 	371
f 612 	371 	613
f 343 	597 	344
f 370 	614 	613
f 138 	137 	469
f 595 	346 	345
f 611 	371 	612
f 134 	155 	472
f 599 	608 	348
f 474 	141 	140
f 617 	366 	365
f 230 	228 	357
f 118 	238 	208
f 330 	588 	352
f 476 	473 	144
f 191 	322 	349
f 354 	601 	355
f 476 	144 	474
f 602 	603 	355
f 477 	140 	147
f 362 	235 	358
f 609 	359 	610
f 352 	604 	354
f 373 	372 	610
f 153 	152 	480
f 236 	94 	116
f 362 	532 	235
f 606 	605 	360
f 153 	480 	154
f 608 	606 	360
f 478 	155 	154
f 225 	240 	99
f 123 	99 	240
f 604 	352 	588
f 159 	158 	485
f 437 	73 	438
f 72 	438 	73
f 481 	480 	152
f 436 	74 	437
f 73 	437 	74
f 100 	225 	99
f 159 	485 	487
f 69 	442 	70
f 441 	70 	442
f 465 	464 	124
f 151 	489 	482
f 464 	466 	126
f 443 	442 	68
f 69 	68 	442
f 234 	113 	232
f 498 	496 	175
f 498 	175 	494
f 179 	500 	180
f 118 	119 	238
f 596 	345 	344
f 129 	466 	463
f 348 	351 	599
f 123 	240 	125
f 121 	125 	239
f 331 	208 	238
f 470 	136 	471
f 135 	134 	471
f 308 	307 	524
f 316 	184 	186
f 298 	533 	299
f 495 	494 	169
f 299 	534 	325
f 303 	302 	527
f 495 	169 	497
f 481 	152 	151
f 163 	497 	171
f 83 	448 	66
f 349 	227 	191
f 307 	306 	524
f 445 	79 	446
f 78 	446 	79
f 433 	66 	448
f 86 	85 	449
f 87 	449 	452
f 78 	88 	446
f 453 	446 	88
f 312 	556 	313
f 176 	197 	503
f 454 	81 	31
f 451 	85 	454
f 315 	314 	559
f 558 	559 	314
f 458 	92 	452
f 87 	452 	92
f 315 	559 	312
f 453 	88 	458
f 92 	458 	88
f 224 	342 	338
f 445 	448 	79
f 83 	79 	448
f 157 	143 	483
f 484 	158 	483
f 157 	483 	158
f 566 	318 	320
f 96 	461 	37
f 484 	485 	158
f 556 	332 	313
f 161 	487 	486
f 163 	161 	488
f 486 	488 	161
f 488 	497 	163
f 489 	168 	167
f 489 	167 	490
f 230 	357 	358
f 167 	166 	490
f 491 	490 	166
f 173 	496 	411
f 262 	537 	536
f 166 	165 	491
f 492 	491 	165
f 165 	493 	492
f 224 	262 	342
f 168 	489 	151
f 170 	169 	494
f 250 	529 	528
f 316 	186 	187
f 589 	341 	340
f 171 	497 	169
f 300 	187 	189
f 339 	591 	340
f 189 	211 	300
f 535 	256 	528
f 337 	336 	592
f 494 	175 	170
f 321 	191 	192
f 499 	180 	500
f 323 	198 	199
f 595 	347 	346
f 500 	179 	501
f 178 	501 	179
f 501 	178 	502
f 177 	502 	178
f 503 	502 	176
f 177 	176 	502
f 487 	161 	160
f 208 	331 	199
f 126 	124 	464
f 487 	160 	159
f 128 	126 	466
f 128 	466 	129
f 221 	223 	338
f 223 	224 	338
f 493 	165 	164
f 465 	124 	131
f 477 	147 	129
f 349 	350 	227
f 226 	227 	350
f 327 	580 	328
f 226 	350 	228
f 328 	581 	329
f 472 	471 	134
f 358 	233 	230
f 358 	235 	233
f 592 	339 	337
f 49 	50 	200
f 93 	200 	50
f 205 	55 	49
f 373 	610 	359
f 605 	361 	360
f 363 	361 	607
f 65 	84 	220
f 220 	100 	65
f 614 	369 	368
f 205 	519 	55
f 616 	367 	366
f 108 	109 	231
f 232 	112 	108
f 597 	343 	609
f 112 	232 	113
f 109 	181 	231
f 605 	607 	361
f 364 	608 	360
f 247 	379 	607
f 234 	236 	113
f 364 	348 	608
f 614 	370 	369
f 239 	119 	121
f 447 	210 	207
f 457 	215 	214
f 576 	289 	577
f 288 	574 	577
f 295 	585 	584
f 586 	293 	547
f 616 	368 	367
f 586 	585 	293
f 359 	609 	343
f 560 	276 	565
f 281 	297 	571
f 567 	285 	568
f 182 	173 	411
f 569 	568 	283
f 282 	570 	283
f 291 	289 	578
f 374 	242 	375
f 243 	244 	375
f 582 	297 	583
f 363 	607 	379
f 185 	423 	434
f 247 	242 	374
f 342 	262 	536
f 384 	255 	381
f 292 	387 	386
f 254 	235 	532
f 375 	244 	376
f 376 	244 	377
f 377 	246 	378
f 246 	384 	378
f 374 	379 	247
f 270 	269 	546
f 382 	381 	253
f 252 	253 	381
f 257 	383 	253
f 382 	253 	383
f 257 	385 	383
f 285 	567 	554
f 290 	266 	388
f 292 	290 	387
f 388 	387 	290
f 273 	272 	552
f 259 	539 	538
f 540 	539 	258
f 259 	258 	539
f 254 	532 	529
f 250 	528 	256
f 531 	251 	535
f 256 	535 	251
f 275 	550 	258
f 540 	258 	550
f 76 	509 	80
f 551 	274 	552
f 139 	520 	82
f 550 	275 	551
f 267 	544 	268
f 543 	268 	544
f 456 	213 	509
f 543 	545 	268
f 269 	268 	545
f 545 	546 	269
f 512 	77 	89
f 267 	265 	544
f 548 	544 	265
f 89 	82 	513
f 89 	513 	512
f 531 	548 	251
f 265 	251 	548
f 272 	554 	553
f 553 	552 	272
f 557 	277 	560
f 276 	560 	277
f 270 	546 	562
f 582 	571 	297
f 569 	283 	570
f 570 	282 	571
f 281 	571 	282
f 522 	172 	523
f 277 	557 	573
f 513 	82 	520
f 288 	577 	289
f 521 	520 	142
f 576 	578 	289
f 174 	519 	172
f 507 	62 	63
f 505 	507 	56
f 63 	56 	507
f 515 	130 	127
f 132 	130 	516
f 515 	516 	130
f 132 	516 	518
f 518 	517 	148
f 522 	133 	172
f 139 	142 	520
f 521 	142 	522
f 133 	522 	142
f 444 	206 	204
f 206 	444 	207
f 456 	214 	213
f 195 	194 	410
f 182 	411 	183
f 194 	193 	410
f 202 	185 	434
f 202 	434 	204
f 460 	459 	216
f 460 	216 	457
f 215 	457 	216
f 504 	127 	58
f 508 	67 	62
f 58 	67 	504
f 508 	504 	67
f 80 	509 	213
# 1232 faces

 #end of obj_0

