# Object Export From Tinkercad Server 2015

mtllib obj.mtl

o obj_0
v 72.373 		-69 		8.343
v 72.681 		-69 		8.343
v 72.681 		-69 		8.657
v 72.373 		-69 		8.657
v 72.681 		-66.109 		8.343
v 72.373 		-66.109 		8.343
v 72.373 		-66.109 		8.657
v 72.681 		-66.109 		8.657
v 73.81 		-67.555 		9.25
v 73.513 		-66.475 		8.657
v 73.264 		-66.296 		8.657
v 73.47 		-66.522 		8.964
v 72.982 		-66.172 		8.657
v 72.963 		-66.233 		8.964
v 71.791 		-66.296 		8.343
v 73.667 		-68.372 		8.964
v 71.791 		-66.296 		8.657
v 71.49 		-68.299 		9.25
v 73.719 		-68.409 		8.657
v 73.782 		-67.292 		9.25
v 71.585 		-66.522 		8.036
v 71.669 		-68.495 		9.25
v 71.637 		-68.193 		9.504
v 72.93 		-67.113 		7.13
v 72.072 		-66.172 		8.343
v 73.513 		-66.475 		8.343
v 73.264 		-66.296 		8.343
v 71.388 		-66.738 		8.036
v 72.982 		-66.172 		8.343
v 71.732 		-67.904 		7.286
v 71.356 		-68.069 		9.25
v 71.241 		-66.989 		8.036
v 71.823 		-68.06 		7.286
v 73.13 		-67.555 		7.13
v 71.669 		-66.614 		7.75
v 73.936 		-67.555 		8.964
v 73.116 		-67.431 		7.13
v 71.49 		-66.811 		7.75
v 73.905 		-67.266 		8.964
v 71.15 		-67.844 		8.964
v 71.356 		-67.04 		7.75
v 72.835 		-67.555 		7.033
v 73.719 		-68.409 		8.343
v 73.667 		-66.738 		8.964
v 72.829 		-67.491 		7.033
v 72.258 		-68.372 		7.286
v 71.637 		-66.916 		9.504
v 72.436 		-68.409 		7.286
v 71.669 		-66.614 		9.25
v 72.809 		-67.431 		7.033
v 72.963 		-68.876 		8.964
v 73.719 		-66.7 		8.657
v 71.49 		-66.811 		9.25
v 72.618 		-68.409 		7.286
v 73.232 		-68.758 		8.964
v 72.776 		-67.376 		7.033
v 71.356 		-67.04 		9.25
v 71.119 		-67.555 		8.036
v 72.733 		-67.329 		7.033
v 73.719 		-66.7 		8.343
v 71.15 		-67.266 		8.036
v 72.982 		-68.937 		8.657
v 72.642 		-66.475 		9.504
v 71.245 		-67.555 		7.75
v 71.273 		-67.292 		7.75
v 73.264 		-68.813 		8.657
v 72.412 		-66.475 		9.504
v 71.791 		-68.362 		7.496
v 72.187 		-66.522 		9.504
v 73.513 		-68.635 		8.657
v 71.657 		-67.555 		9.714
v 71.676 		-67.376 		9.714
v 72.661 		-66.296 		9.25
v 71.977 		-68.495 		7.496
v 72.675 		-66.172 		8.036
v 72.393 		-66.296 		9.25
v 72.982 		-68.937 		8.343
v 73.264 		-68.813 		8.343
v 72.131 		-66.351 		9.25
v 72.38 		-66.172 		8.036
v 73.513 		-68.635 		8.343
v 72.187 		-68.587 		7.496
v 72.092 		-66.233 		8.036
v 71.427 		-67.555 		9.504
v 71.522 		-67.113 		9.504
v 71.886 		-66.459 		9.25
v 71.823 		-66.351 		8.036
v 71.945 		-68.193 		7.286
v 71.427 		-67.555 		7.496
v 71.451 		-67.329 		9.504
v 71.637 		-66.916 		7.496
v 72.092 		-68.299 		7.286
v 72.661 		-66.296 		7.75
v 71.522 		-67.113 		7.496
v 71.245 		-67.555 		9.25
v 72.226 		-67.618 		9.967
v 71.273 		-67.292 		9.25
v 72.246 		-67.678 		9.967
v 72.393 		-66.296 		7.75
v 72.131 		-66.351 		7.75
v 72.278 		-67.733 		9.967
v 71.451 		-67.329 		7.496
v 72.321 		-67.78 		9.967
v 72.373 		-67.818 		9.967
v 71.886 		-66.459 		7.75
v 72.226 		-67.618 		7.033
v 72.59 		-66.964 		9.87
v 71.585 		-66.522 		8.964
v 72.464 		-66.964 		9.87
v 71.657 		-67.555 		7.286
v 71.542 		-66.475 		8.657
v 72.246 		-67.678 		7.033
v 72.341 		-66.989 		9.87
v 72.681 		-67.818 		9.967
v 71.542 		-66.475 		8.343
v 72.278 		-67.733 		7.033
v 72.226 		-67.04 		9.87
v 72.321 		-67.78 		7.033
v 72.642 		-66.475 		7.496
v 71.119 		-67.555 		8.964
v 71.676 		-67.376 		7.286
v 72.618 		-66.7 		9.714
v 71.388 		-66.738 		8.964
v 72.412 		-66.475 		7.496
v 72.373 		-67.818 		7.033
v 72.187 		-66.522 		7.496
v 72.436 		-66.7 		9.714
v 71.241 		-66.989 		8.964
v 72.258 		-66.738 		9.714
v 72.681 		-67.818 		7.033
v 71.15 		-67.266 		8.964
v 71.241 		-68.12 		8.964
v 73.814 		-66.989 		8.964
v 73.47 		-68.587 		8.036
v 74 		-67.555 		8.657
v 73.667 		-68.372 		8.036
v 73.968 		-67.252 		8.657
v 72.618 		-66.7 		7.286
v 73.385 		-68.495 		7.75
v 72.432 		-67.844 		9.967
v 73.873 		-66.964 		8.657
v 72.436 		-66.7 		7.286
v 72.495 		-67.857 		9.967
v 73.565 		-68.299 		7.75
v 72.56 		-67.857 		9.967
v 72.258 		-66.738 		7.286
v 71.055 		-67.555 		8.657
v 72.623 		-67.844 		9.967
v 71.336 		-66.7 		8.657
v 73.699 		-68.069 		7.75
v 74 		-67.555 		8.343
v 73.968 		-67.252 		8.343
v 73.873 		-66.964 		8.343
v 71.182 		-66.964 		8.657
v 72.226 		-68.069 		9.87
v 71.087 		-67.252 		8.657
v 72.226 		-68.069 		7.13
v 71.977 		-66.614 		7.496
v 71.055 		-67.555 		8.343
v 73.782 		-67.818 		9.25
v 71.336 		-66.7 		8.343
v 73.533 		-67.996 		7.496
v 71.182 		-66.964 		8.343
v 71.791 		-66.748 		7.496
v 71.087 		-67.252 		8.343
v 72.432 		-67.844 		7.033
v 73.604 		-67.78 		7.496
v 73.814 		-68.12 		8.964
v 72.092 		-66.811 		7.286
v 72.495 		-67.857 		7.033
v 71.945 		-66.916 		7.286
v 73.905 		-67.844 		8.964
v 72.56 		-67.857 		7.033
v 71.938 		-67.678 		9.87
v 73.232 		-68.06 		7.286
v 72.623 		-67.844 		7.033
v 71.823 		-67.05 		7.286
v 71.977 		-67.796 		9.87
v 73.322 		-67.904 		7.286
v 73.232 		-68.06 		9.714
v 72.04 		-67.904 		9.87
v 73.322 		-67.904 		9.714
v 73.379 		-67.733 		7.286
v 72.124 		-67.996 		9.87
v 73.379 		-67.733 		9.714
v 72.092 		-66.811 		9.714
v 71.945 		-66.916 		9.714
v 71.732 		-67.205 		7.286
v 71.732 		-67.904 		9.714
v 71.938 		-67.678 		7.13
v 71.823 		-68.06 		9.714
v 71.977 		-67.796 		7.13
v 73.533 		-67.996 		9.504
v 73.873 		-68.146 		8.657
v 72.04 		-67.904 		7.13
v 72.124 		-67.996 		7.13
v 73.604 		-67.78 		9.504
v 73.968 		-67.857 		8.657
v 72.867 		-68.587 		7.496
v 73.078 		-68.495 		7.496
v 73.264 		-68.362 		7.496
v 72.59 		-66.964 		7.13
v 73.873 		-68.146 		8.343
v 72.341 		-68.12 		9.87
v 73.968 		-67.857 		8.343
v 73.418 		-68.193 		7.496
v 72.464 		-66.964 		7.13
v 72.464 		-68.146 		9.87
v 73.699 		-68.069 		9.25
v 72.341 		-66.989 		7.13
v 72.59 		-68.146 		9.87
v 72.226 		-67.04 		7.13
v 72.796 		-68.372 		7.286
v 72.867 		-66.522 		9.504
v 72.963 		-68.299 		7.286
v 73.169 		-66.459 		9.25
v 72.258 		-68.372 		9.714
v 72.924 		-66.351 		9.25
v 72.733 		-67.78 		9.967
v 72.341 		-68.12 		7.13
v 72.776 		-67.733 		9.967
v 73.11 		-68.193 		7.286
v 72.436 		-68.409 		9.714
v 72.464 		-68.146 		7.13
v 72.809 		-67.678 		9.967
v 72.829 		-67.618 		9.967
v 72.59 		-68.146 		7.13
v 72.618 		-68.409 		9.714
v 73.232 		-67.05 		9.714
v 72.829 		-68.069 		9.87
v 72.93 		-67.996 		9.87
v 73.418 		-66.916 		9.504
v 73.015 		-67.904 		9.87
v 71.388 		-68.372 		8.964
v 73.078 		-67.796 		9.87
v 71.823 		-67.05 		9.714
v 71.823 		-68.758 		8.036
v 71.945 		-68.193 		9.714
v 71.977 		-66.614 		9.504
v 72.681 		-67.292 		7.033
v 73.116 		-67.678 		9.87
v 72.092 		-68.299 		9.714
v 72.092 		-68.876 		8.036
v 72.829 		-68.069 		7.13
v 71.791 		-66.748 		9.504
v 72.623 		-67.266 		7.033
v 71.791 		-68.362 		9.504
v 72.56 		-67.252 		7.033
v 72.38 		-68.937 		8.036
v 72.93 		-67.996 		7.13
v 72.495 		-67.252 		7.033
v 72.675 		-68.937 		8.036
v 71.977 		-68.495 		9.504
v 72.432 		-67.266 		7.033
v 73.015 		-67.904 		7.13
v 71.886 		-68.651 		7.75
v 73.078 		-67.796 		7.13
v 72.187 		-68.587 		9.504
v 72.373 		-67.292 		7.033
v 72.131 		-68.758 		7.75
v 73.116 		-67.678 		7.13
v 72.393 		-68.813 		7.75
v 72.681 		-67.292 		9.967
v 72.623 		-67.266 		9.967
v 72.56 		-67.252 		9.967
v 72.661 		-68.813 		7.75
v 72.495 		-67.252 		9.967
v 72.432 		-67.266 		9.967
v 73.264 		-68.362 		9.504
v 72.373 		-67.292 		9.967
v 73.418 		-68.193 		9.504
v 72.412 		-68.635 		9.504
v 72.733 		-67.78 		7.033
v 72.642 		-68.635 		9.504
v 72.527 		-67.555 		7
v 73.385 		-68.495 		9.25
v 72.776 		-67.733 		7.033
v 71.886 		-68.651 		9.25
v 73.565 		-68.299 		9.25
v 72.809 		-67.678 		7.033
v 72.131 		-68.758 		9.25
v 72.829 		-67.618 		7.033
v 72.412 		-68.635 		7.496
v 72.642 		-68.635 		7.496
v 72.393 		-68.813 		9.25
v 72.661 		-68.813 		9.25
v 71.15 		-67.844 		8.036
v 72.714 		-68.12 		9.87
v 71.585 		-68.587 		8.964
v 72.527 		-67.555 		10
v 73.264 		-66.748 		9.504
v 71.241 		-68.12 		8.036
v 72.796 		-68.372 		9.714
v 72.714 		-68.12 		7.13
v 72.963 		-68.299 		9.714
v 73.699 		-67.04 		9.25
v 71.388 		-68.372 		8.036
v 73.11 		-68.193 		9.714
v 73.565 		-66.811 		9.25
v 72.867 		-68.587 		9.504
v 71.585 		-68.587 		8.036
v 73.078 		-68.495 		9.504
v 71.273 		-67.818 		7.75
v 72.963 		-68.876 		8.036
v 71.087 		-67.857 		8.657
v 73.232 		-68.758 		8.036
v 71.182 		-68.146 		8.657
v 71.356 		-68.069 		7.75
v 71.336 		-68.409 		8.657
v 71.49 		-68.299 		7.75
v 71.669 		-68.495 		7.75
v 71.823 		-68.758 		8.964
v 72.924 		-68.758 		9.25
v 72.092 		-68.876 		8.964
v 72.924 		-68.758 		7.75
v 72.38 		-68.937 		8.964
v 73.169 		-68.651 		7.75
v 73.169 		-68.651 		9.25
v 72.675 		-68.937 		8.964
v 72.22 		-67.555 		9.967
v 73.47 		-68.587 		8.964
v 71.451 		-67.78 		7.496
v 72.321 		-67.329 		9.967
v 72.278 		-67.376 		9.967
v 71.522 		-67.996 		7.496
v 72.246 		-67.431 		9.967
v 73.385 		-66.614 		9.25
v 72.226 		-67.491 		9.967
v 72.22 		-67.555 		7.033
v 72.321 		-67.329 		7.033
v 71.637 		-68.193 		7.496
v 72.278 		-67.376 		7.033
v 71.087 		-67.857 		8.343
v 72.246 		-67.431 		7.033
v 71.676 		-67.733 		7.286
v 71.182 		-68.146 		8.343
v 71.336 		-68.409 		8.343
v 72.226 		-67.491 		7.033
v 71.542 		-68.635 		8.657
v 71.925 		-67.555 		9.87
v 72.829 		-67.04 		9.87
v 71.542 		-68.635 		8.343
v 73.814 		-68.12 		8.036
v 72.714 		-66.989 		9.87
v 73.905 		-67.844 		8.036
v 73.936 		-67.555 		8.036
v 72.124 		-67.113 		9.87
v 73.905 		-67.266 		8.036
v 73.814 		-66.989 		8.036
v 72.04 		-67.205 		9.87
v 73.11 		-66.916 		9.714
v 71.925 		-67.555 		7.13
v 73.782 		-67.818 		7.75
v 71.977 		-67.313 		9.87
v 72.124 		-67.113 		7.13
v 72.963 		-66.811 		9.714
v 73.81 		-67.555 		7.75
v 72.04 		-67.205 		7.13
v 71.791 		-68.813 		8.657
v 73.782 		-67.292 		7.75
v 71.938 		-67.431 		9.87
v 72.072 		-68.937 		8.657
v 71.977 		-67.313 		7.13
v 72.796 		-66.738 		9.714
v 71.938 		-67.431 		7.13
v 73.47 		-66.522 		8.036
v 71.791 		-68.813 		8.343
v 73.232 		-66.351 		8.036
v 73.078 		-66.614 		9.504
v 72.072 		-68.937 		8.343
v 72.963 		-66.233 		8.036
v 71.732 		-67.205 		9.714
v 73.169 		-66.459 		7.75
v 72.924 		-66.351 		7.75
v 72.867 		-66.522 		7.496
v 71.676 		-67.733 		9.714
v 73.398 		-67.555 		9.714
v 71.451 		-67.78 		9.504
v 73.667 		-66.738 		8.036
v 73.379 		-67.376 		9.714
v 72.675 		-66.172 		8.964
v 71.522 		-67.996 		9.504
v 73.699 		-67.04 		7.75
v 73.565 		-66.811 		7.75
v 72.38 		-66.172 		8.964
v 73.322 		-67.205 		9.714
v 72.092 		-66.233 		8.964
v 73.385 		-66.614 		7.75
v 71.823 		-66.351 		8.964
v 73.628 		-67.555 		9.504
v 71.273 		-67.818 		9.25
v 73.418 		-66.916 		7.496
v 73.604 		-67.329 		9.504
v 73.264 		-66.748 		7.496
v 73.078 		-66.614 		7.496
v 73.533 		-67.113 		9.504
v 73.232 		-67.05 		7.286
v 73.11 		-66.916 		7.286
v 72.963 		-66.811 		7.286
v 72.796 		-66.738 		7.286
v 72.072 		-66.172 		8.657
v 73.628 		-67.555 		7.496
v 73.604 		-67.329 		7.496
v 73.533 		-67.113 		7.496
v 73.398 		-67.555 		7.286
v 73.379 		-67.376 		7.286
v 73.322 		-67.205 		7.286
v 73.078 		-67.313 		9.87
v 73.015 		-67.205 		9.87
v 72.93 		-67.113 		9.87
v 72.829 		-67.04 		7.13
v 72.714 		-66.989 		7.13
v 72.835 		-67.555 		9.967
v 73.078 		-67.313 		7.13
v 72.829 		-67.491 		9.967
v 72.809 		-67.431 		9.967
v 72.776 		-67.376 		9.967
v 73.015 		-67.205 		7.13
v 72.733 		-67.329 		9.967
v 73.13 		-67.555 		9.87
v 73.116 		-67.431 		9.87
v 73.232 		-66.351 		8.964
# 422 vertices

g group_0_15597312

usemtl color_15597312
s 0

f 1 	2 	3
f 1 	3 	4
f 5 	6 	7
f 5 	7 	8
f 10 	11 	12
f 6 	83 	25
f 26 	27 	11
f 26 	11 	10
f 9 	39 	20
f 13 	11 	29
f 27 	29 	11
f 21 	35 	38
f 34 	45 	37
f 36 	39 	9
f 335 	192 	30
f 21 	38 	28
f 192 	195 	33
f 192 	33 	30
f 38 	41 	28
f 25 	87 	15
f 28 	41 	32
f 43 	136 	343
f 45 	34 	42
f 37 	45 	50
f 46 	224 	48
f 46 	220 	224
f 47 	57 	85
f 53 	57 	47
f 52 	141 	60
f 141 	153 	60
f 26 	10 	60
f 48 	224 	54
f 51 	62 	66
f 32 	65 	61
f 77 	66 	62
f 51 	66 	55
f 41 	65 	32
f 65 	64 	61
f 55 	66 	70
f 214 	73 	63
f 61 	64 	58
f 67 	63 	76
f 73 	76 	63
f 66 	77 	78
f 76 	79 	67
f 5 	80 	6
f 78 	81 	70
f 78 	70 	66
f 80 	5 	75
f 81 	43 	70
f 80 	83 	6
f 102 	65 	41
f 67 	79 	69
f 79 	86 	69
f 77 	306 	78
f 83 	87 	25
f 33 	196 	88
f 35 	91 	38
f 72 	84 	71
f 331 	88 	68
f 90 	84 	72
f 68 	92 	74
f 87 	21 	15
f 73 	385 	76
f 88 	92 	68
f 91 	94 	38
f 74 	46 	82
f 85 	97 	90
f 92 	46 	74
f 41 	38 	94
f 79 	76 	387
f 93 	99 	80
f 93 	80 	75
f 57 	97 	85
f 46 	48 	82
f 389 	86 	79
f 90 	95 	84
f 82 	48 	283
f 97 	95 	90
f 80 	100 	83
f 41 	94 	102
f 389 	108 	86
f 99 	100 	80
f 94 	121 	102
f 100 	105 	83
f 220 	46 	92
f 102 	89 	65
f 83 	105 	87
f 87 	35 	21
f 35 	87 	105
f 65 	89 	64
f 109 	267 	107
f 119 	99 	93
f 17 	15 	111
f 108 	149 	123
f 111 	149 	108
f 111 	15 	115
f 115 	161 	111
f 113 	186 	117
f 129 	186 	113
f 120 	40 	95
f 94 	188 	121
f 49 	123 	53
f 99 	119 	124
f 108 	123 	49
f 99 	126 	100
f 124 	126 	99
f 109 	107 	127
f 122 	127 	107
f 53 	128 	57
f 127 	129 	109
f 121 	110 	102
f 123 	128 	53
f 128 	131 	57
f 109 	129 	113
f 98 	181 	101
f 102 	110 	89
f 97 	57 	131
f 97 	120 	95
f 119 	138 	124
f 131 	120 	97
f 275 	116 	112
f 20 	39 	133
f 118 	116 	275
f 118 	275 	125
f 81 	136 	43
f 105 	164 	35
f 154 	128 	123
f 81 	134 	136
f 164 	91 	35
f 36 	137 	39
f 135 	137 	36
f 39 	137 	141
f 142 	124 	138
f 131 	147 	120
f 39 	141 	133
f 134 	144 	136
f 142 	146 	124
f 133 	52 	44
f 139 	144 	134
f 133 	141 	52
f 136 	144 	150
f 124 	146 	126
f 146 	169 	126
f 152 	137 	151
f 135 	151 	137
f 141 	137 	153
f 152 	153 	137
f 149 	154 	123
f 138 	202 	142
f 103 	155 	104
f 128 	156 	131
f 139 	201 	206
f 140 	104 	204
f 154 	156 	128
f 139 	206 	144
f 152 	349 	153
f 156 	147 	131
f 104 	155 	204
f 165 	147 	156
f 100 	158 	105
f 147 	159 	305
f 149 	111 	161
f 145 	143 	211
f 158 	100 	126
f 154 	149 	163
f 161 	163 	149
f 158 	164 	105
f 156 	154 	165
f 163 	165 	154
f 288 	148 	145
f 147 	165 	159
f 157 	125 	166
f 114 	148 	230
f 167 	150 	162
f 148 	288 	230
f 28 	161 	115
f 158 	126 	169
f 158 	171 	164
f 161 	32 	163
f 155 	217 	204
f 28 	32 	161
f 169 	171 	158
f 61 	163 	32
f 171 	177 	164
f 163 	61 	165
f 165 	58 	159
f 178 	98 	96
f 61 	58 	165
f 164 	177 	91
f 174 	178 	96
f 188 	91 	177
f 122 	63 	67
f 127 	122 	67
f 178 	181 	98
f 212 	169 	146
f 179 	162 	206
f 127 	69 	129
f 162 	183 	167
f 212 	355 	169
f 127 	67 	69
f 162 	179 	183
f 103 	101 	184
f 169 	355 	171
f 181 	184 	101
f 184 	155 	103
f 255 	175 	222
f 174 	189 	178
f 94 	91 	188
f 376 	189 	174
f 181 	178 	191
f 189 	191 	178
f 160 	36 	9
f 191 	238 	181
f 110 	352 	190
f 192 	335 	190
f 160 	172 	36
f 179 	257 	261
f 179 	261 	183
f 180 	193 	182
f 190 	112 	192
f 16 	194 	168
f 181 	238 	184
f 16 	19 	194
f 193 	180 	271
f 242 	155 	184
f 182 	193 	197
f 168 	194 	198
f 177 	363 	188
f 184 	238 	242
f 203 	198 	194
f 195 	196 	33
f 168 	198 	172
f 172 	198 	135
f 185 	182 	197
f 151 	135 	198
f 390 	185 	197
f 196 	125 	157
f 135 	36 	172
f 352 	110 	121
f 203 	194 	43
f 19 	43 	194
f 203 	205 	198
f 9 	390 	197
f 205 	151 	198
f 207 	142 	202
f 208 	143 	140
f 140 	204 	208
f 142 	210 	146
f 43 	343 	203
f 106 	112 	190
f 143 	208 	211
f 162 	150 	144
f 207 	210 	142
f 160 	197 	193
f 195 	192 	116
f 210 	212 	146
f 145 	211 	288
f 144 	206 	162
f 112 	116 	192
f 193 	209 	160
f 116 	118 	195
f 9 	197 	160
f 196 	195 	118
f 199 	213 	215
f 118 	125 	196
f 217 	155 	242
f 88 	196 	157
f 209 	172 	160
f 88 	157 	92
f 199 	215 	200
f 200 	215 	222
f 218 	73 	214
f 204 	217 	223
f 220 	92 	157
f 204 	223 	208
f 227 	54 	224
f 201 	200 	222
f 211 	208 	228
f 223 	228 	208
f 381 	73 	218
f 206 	201 	175
f 248 	251 	202
f 222 	175 	201
f 206 	175 	179
f 212 	210 	259
f 114 	231 	219
f 231 	114 	230
f 233 	221 	219
f 157 	166 	220
f 132 	234 	31
f 220 	166 	170
f 219 	231 	233
f 220 	170 	224
f 223 	272 	228
f 117 	186 	187
f 173 	227 	170
f 224 	170 	227
f 221 	233 	235
f 187 	47 	236
f 176 	227 	173
f 31 	234 	18
f 191 	247 	238
f 221 	235 	225
f 215 	250 	222
f 129 	239 	186
f 24 	59 	240
f 225 	235 	241
f 129 	69 	239
f 239 	245 	186
f 225 	241 	226
f 226 	420 	413
f 186 	245 	187
f 241 	420 	226
f 244 	250 	215
f 370 	243 	249
f 207 	202 	251
f 247 	191 	23
f 238 	247 	253
f 245 	47 	187
f 254 	207 	251
f 47 	85 	236
f 298 	180 	231
f 222 	250 	255
f 69 	86 	239
f 238 	253 	242
f 237 	301 	256
f 207 	254 	210
f 242 	253 	258
f 245 	239 	49
f 175 	257 	179
f 233 	231 	180
f 210 	254 	259
f 237 	256 	260
f 86 	49 	239
f 255 	257 	175
f 233 	180 	182
f 49 	53 	245
f 217 	242 	258
f 245 	53 	47
f 258 	272 	217
f 235 	233 	182
f 247 	23 	22
f 237 	260 	243
f 243 	260 	262
f 235 	185 	241
f 182 	185 	235
f 241 	185 	377
f 22 	278 	247
f 243 	262 	249
f 34 	183 	261
f 252 	249 	266
f 262 	266 	249
f 241 	377 	420
f 240 	275 	246
f 253 	281 	258
f 266 	315 	252
f 275 	248 	246
f 294 	176 	130
f 258 	281 	285
f 251 	248 	275
f 256 	82 	260
f 294 	130 	244
f 256 	74 	82
f 217 	272 	223
f 244 	130 	273
f 274 	228 	272
f 244 	273 	250
f 264 	107 	265
f 250 	273 	277
f 106 	275 	112
f 247 	278 	253
f 265 	107 	267
f 279 	271 	269
f 250 	277 	255
f 267 	113 	268
f 255 	280 	257
f 109 	113 	267
f 253 	278 	281
f 255 	277 	280
f 276 	279 	269
f 113 	117 	268
f 282 	261 	257
f 166 	125 	275
f 271 	279 	209
f 278 	314 	281
f 283 	262 	260
f 275 	170 	166
f 268 	117 	270
f 260 	82 	283
f 275 	173 	170
f 282 	257 	280
f 283 	284 	266
f 283 	266 	262
f 271 	209 	193
f 275 	176 	173
f 261 	282 	42
f 275 	130 	176
f 276 	321 	16
f 48 	54 	283
f 284 	283 	54
f 275 	273 	130
f 16 	279 	276
f 261 	42 	34
f 258 	285 	272
f 275 	277 	273
f 284 	54 	213
f 285 	286 	274
f 285 	274 	272
f 275 	280 	277
f 58 	303 	287
f 234 	289 	18
f 309 	234 	132
f 232 	229 	386
f 232 	291 	229
f 18 	289 	22
f 98 	101 	290
f 293 	288 	211
f 54 	227 	294
f 101 	103 	290
f 211 	228 	293
f 229 	291 	351
f 54 	294 	213
f 103 	104 	290
f 295 	230 	288
f 288 	293 	295
f 104 	140 	290
f 213 	294 	244
f 230 	298 	231
f 140 	143 	290
f 307 	132 	40
f 230 	295 	298
f 143 	145 	290
f 145 	148 	290
f 228 	274 	300
f 215 	213 	244
f 148 	114 	290
f 297 	311 	301
f 294 	227 	176
f 300 	293 	228
f 114 	219 	290
f 293 	302 	295
f 293 	300 	302
f 219 	221 	290
f 298 	295 	269
f 221 	225 	290
f 120 	305 	40
f 269 	295 	302
f 252 	315 	304
f 225 	226 	290
f 298 	269 	271
f 305 	120 	147
f 281 	316 	285
f 298 	271 	180
f 58 	64 	303
f 303 	308 	287
f 305 	307 	40
f 306 	77 	304
f 307 	309 	132
f 134 	78 	306
f 287 	308 	292
f 300 	318 	302
f 304 	317 	306
f 292 	310 	297
f 312 	278 	22
f 308 	310 	292
f 275 	282 	280
f 302 	276 	269
f 263 	290 	419
f 310 	311 	297
f 134 	81 	78
f 282 	275 	42
f 263 	264 	290
f 264 	265 	290
f 275 	45 	42
f 274 	313 	300
f 256 	301 	311
f 314 	278 	312
f 265 	267 	290
f 275 	50 	45
f 274 	286 	313
f 64 	89 	322
f 267 	268 	290
f 318 	300 	313
f 275 	56 	50
f 316 	281 	314
f 64 	322 	303
f 285 	316 	286
f 275 	59 	56
f 268 	270 	290
f 319 	286 	316
f 304 	315 	317
f 275 	240 	59
f 51 	286 	319
f 306 	317 	139
f 323 	324 	290
f 276 	302 	318
f 319 	62 	51
f 324 	326 	290
f 317 	201 	139
f 51 	313 	286
f 331 	310 	308
f 313 	51 	55
f 306 	139 	134
f 313 	55 	318
f 275 	254 	251
f 199 	266 	284
f 310 	68 	311
f 284 	213 	199
f 96 	290 	320
f 275 	259 	254
f 96 	98 	290
f 311 	68 	74
f 199 	315 	266
f 275 	330 	259
f 311 	74 	256
f 321 	276 	318
f 315 	200 	317
f 315 	199 	200
f 55 	321 	318
f 314 	4 	316
f 270 	323 	290
f 296 	44 	299
f 317 	200 	201
f 325 	308 	303
f 303 	322 	325
f 209 	279 	168
f 290 	326 	328
f 232 	327 	291
f 279 	16 	168
f 328 	320 	290
f 325 	331 	308
f 172 	209 	168
f 212 	259 	330
f 299 	327 	232
f 55 	70 	321
f 327 	216 	291
f 321 	70 	19
f 70 	43 	19
f 96 	320 	174
f 321 	19 	16
f 68 	310 	331
f 159 	333 	305
f 89 	110 	335
f 333 	336 	307
f 333 	307 	305
f 309 	307 	337
f 336 	337 	307
f 110 	190 	335
f 58 	287 	159
f 335 	322 	89
f 20 	133 	296
f 354 	326 	324
f 159 	287 	333
f 325 	322 	30
f 296 	133 	44
f 287 	292 	333
f 333 	292 	336
f 30 	322 	335
f 350 	354 	324
f 336 	297 	337
f 331 	325 	33
f 292 	297 	336
f 297 	301 	337
f 327 	299 	12
f 312 	22 	289
f 299 	44 	12
f 334 	338 	363
f 234 	339 	289
f 30 	33 	325
f 234 	309 	339
f 33 	88 	331
f 342 	339 	309
f 174 	320 	340
f 309 	337 	342
f 329 	275 	106
f 376 	174 	340
f 342 	337 	301
f 341 	344 	263
f 203 	345 	205
f 342 	301 	237
f 203 	343 	345
f 356 	364 	341
f 346 	151 	205
f 341 	364 	344
f 347 	270 	117
f 205 	345 	346
f 117 	187 	347
f 151 	346 	348
f 344 	264 	263
f 346 	360 	348
f 323 	270 	347
f 330 	275 	332
f 344 	107 	264
f 348 	152 	151
f 275 	334 	332
f 350 	323 	347
f 349 	152 	348
f 275 	338 	334
f 338 	275 	329
f 323 	350 	324
f 136 	150 	343
f 319 	316 	3
f 4 	3 	316
f 343 	353 	345
f 343 	150 	353
f 410 	351 	356
f 345 	353 	357
f 62 	319 	3
f 358 	177 	171
f 351 	369 	356
f 345 	357 	346
f 359 	289 	339
f 339 	342 	359
f 354 	361 	326
f 289 	359 	312
f 360 	346 	357
f 348 	360 	383
f 171 	355 	358
f 410 	356 	341
f 362 	314 	312
f 372 	72 	354
f 358 	363 	177
f 354 	72 	361
f 349 	348 	383
f 326 	361 	328
f 312 	359 	362
f 328 	340 	320
f 353 	150 	167
f 4 	314 	362
f 353 	402 	357
f 340 	328 	361
f 353 	167 	402
f 403 	360 	357
f 357 	402 	403
f 344 	122 	107
f 71 	376 	340
f 188 	365 	121
f 364 	122 	344
f 60 	366 	26
f 188 	363 	365
f 359 	342 	367
f 60 	379 	366
f 365 	352 	121
f 366 	368 	26
f 367 	370 	362
f 367 	362 	359
f 366 	373 	368
f 4 	362 	1
f 370 	1 	362
f 187 	236 	347
f 26 	368 	27
f 77 	62 	2
f 3 	2 	62
f 368 	371 	27
f 368 	374 	371
f 347 	236 	350
f 351 	291 	369
f 27 	371 	29
f 106 	190 	352
f 5 	29 	75
f 237 	367 	342
f 369 	214 	356
f 371 	75 	29
f 350 	372 	354
f 352 	329 	106
f 367 	237 	243
f 373 	366 	388
f 355 	212 	330
f 372 	350 	236
f 243 	370 	367
f 249 	1 	370
f 374 	368 	373
f 356 	214 	364
f 374 	93 	371
f 358 	355 	332
f 372 	90 	72
f 330 	332 	355
f 214 	63 	364
f 371 	93 	75
f 364 	63 	122
f 1 	249 	2
f 252 	2 	249
f 358 	332 	334
f 375 	373 	395
f 2 	252 	304
f 358 	334 	363
f 71 	340 	361
f 2 	304 	77
f 363 	338 	365
f 291 	216 	369
f 375 	374 	373
f 72 	71 	361
f 375 	119 	374
f 369 	218 	214
f 216 	218 	369
f 119 	93 	374
f 338 	329 	365
f 85 	372 	236
f 375 	138 	119
f 365 	329 	352
f 153 	349 	379
f 378 	376 	71
f 85 	90 	372
f 379 	60 	153
f 21 	115 	15
f 71 	84 	378
f 21 	28 	115
f 378 	382 	376
f 379 	349 	384
f 391 	31 	378
f 381 	385 	73
f 378 	31 	382
f 384 	349 	383
f 379 	384 	388
f 385 	387 	76
f 381 	8 	385
f 380 	396 	386
f 376 	382 	189
f 379 	388 	366
f 393 	396 	380
f 189 	382 	23
f 392 	384 	383
f 191 	189 	23
f 387 	389 	79
f 384 	394 	388
f 395 	373 	388
f 394 	395 	388
f 390 	377 	185
f 391 	378 	84
f 390 	393 	377
f 383 	404 	392
f 84 	95 	391
f 394 	384 	392
f 392 	398 	394
f 108 	49 	86
f 40 	391 	95
f 397 	398 	392
f 391 	132 	31
f 381 	14 	8
f 40 	132 	391
f 377 	393 	380
f 7 	385 	8
f 392 	404 	397
f 382 	18 	23
f 31 	18 	382
f 396 	232 	386
f 394 	398 	399
f 18 	22 	23
f 394 	399 	395
f 17 	389 	387
f 375 	395 	400
f 399 	400 	395
f 389 	111 	108
f 138 	375 	400
f 13 	8 	14
f 13 	29 	8
f 9 	20 	390
f 390 	20 	393
f 385 	401 	387
f 412 	202 	400
f 400 	202 	138
f 20 	296 	393
f 7 	401 	385
f 401 	17 	387
f 25 	17 	401
f 360 	404 	383
f 360 	403 	404
f 393 	296 	396
f 396 	296 	299
f 17 	111 	389
f 405 	402 	167
f 167 	183 	405
f 396 	299 	232
f 8 	29 	5
f 402 	406 	403
f 402 	405 	406
f 7 	6 	25
f 7 	25 	401
f 403 	406 	407
f 17 	25 	15
f 403 	407 	404
f 404 	407 	397
f 183 	34 	405
f 417 	409 	410
f 405 	34 	37
f 405 	37 	406
f 406 	414 	407
f 406 	37 	414
f 398 	411 	399
f 408 	229 	409
f 411 	398 	24
f 386 	229 	408
f 400 	399 	412
f 409 	351 	410
f 411 	412 	399
f 229 	351 	409
f 24 	240 	411
f 411 	246 	412
f 240 	246 	411
f 412 	248 	202
f 290 	226 	413
f 246 	248 	412
f 413 	415 	290
f 415 	416 	290
f 290 	416 	417
f 407 	414 	418
f 417 	419 	290
f 414 	50 	56
f 414 	56 	418
f 407 	418 	397
f 397 	418 	24
f 413 	420 	421
f 420 	380 	421
f 397 	24 	398
f 377 	380 	420
f 413 	421 	415
f 415 	408 	416
f 414 	37 	50
f 415 	421 	408
f 416 	409 	417
f 408 	409 	416
f 59 	24 	418
f 410 	419 	417
f 418 	56 	59
f 341 	263 	419
f 410 	341 	419
f 380 	386 	421
f 421 	386 	408
f 327 	422 	216
f 422 	327 	12
f 422 	14 	216
f 422 	13 	14
f 11 	13 	422
f 216 	14 	218
f 14 	381 	218
f 44 	52 	10
f 52 	60 	10
f 10 	12 	44
f 422 	12 	11
# 840 faces

 #end of obj_0

