index,#,Target,Range,Speed,Max,Formula,Comments
0,1,50,20,6,100,50,Intro
1,2,25,10,6,100,25,-
2,3,15,5,6,100,15,-
3,4,60,10,5,100,60,-
4,5,75,3,5,100,75,-
5,6,25,5,5,100,25,-
6,7,55,2,6,100,55,-
7,8,65,10,6,100,65,Edgy
8,9,15,2,3,100,15,-
9,10,90,5,2,100,90,-
10,11,10,1,5,100,10,-
11,12,50,5,3,100,50,-
12,13,43,5,8,100,43,-
13,14,50,0,8,100,50,-
14,15,55,10,2,100,55,Fast
15,16,75,5,3,100,75,-
16,17,45,3,2,100,45,-
17,18,95,3,2,100,95,-
18,19,50,2,2,100,50,-
19,20,25,1,3,100,25,-
20,21,40,0,2,100,40,-
21,22,55,2,6,100,55,Accuracy
22,23,25,2,6,100,25,-
23,24,75,5,5,100,75,-
24,25,15,2,5,100,15,-
25,26,60,0,4,100,60,-
26,27,35,5,4,100,35,-
27,28,80,0,3,100,80,-
28,29,42,1,2,100,42,-
29,30,87,0,1,100,99,-
30,31,25,2,1,100,25,Fast Acc
31,32,50,1,2,100,50,-
32,33,76,0,2,100,76,-
33,34,54,2,1,100,54,-
34,35,34,3,2,100,34,-
35,36,67,1,2,100,67,-
36,37,80,0,1,100,80,-
37,38,25,2,2,100,25,-
38,39,34,1,2,100,34,-
39,40,99,0,1,100,87,-
40,41,100,10,6,200,50,Intro
41,42,50,10,6,200,25,-
42,43,30,5,6,200,15,-
43,44,120,10,5,200,60,-
44,45,150,3,5,200,75,-
45,46,50,5,5,200,25,-
46,47,110,2,6,200,55,-
47,48,130,10,6,200,65,Edgy
48,49,30,2,3,200,15,-
49,50,180,5,2,200,90,-
50,51,20,1,5,200,10,-
51,52,100,5,3,200,50,-
52,53,86,5,8,200,43,-
53,54,100,0,8,200,50,-
54,55,110,10,2,200,55,Fast
55,56,150,5,3,200,75,-
56,57,90,3,2,200,45,-
57,58,190,3,2,200,95,-
58,59,100,2,2,200,50,-
59,60,50,1,3,200,25,-
60,61,80,0,2,200,40,-
61,62,110,2,6,200,55,Accuracy
62,63,50,2,6,200,25,-
63,64,150,5,5,200,75,-
64,65,30,2,5,200,15,-
65,66,120,0,4,200,60,-
66,67,70,5,4,200,35,-
67,68,160,0,3,200,80,-
68,69,84,1,2,200,42,-
69,70,174,0,1,200,87,-
70,71,50,2,1,200,25,Fast Acc
71,72,100,1,2,200,50,-
72,73,152,0,2,200,76,-
73,74,108,2,1,200,54,-
74,75,68,3,2,200,34,-
75,76,134,1,2,200,67,-
76,77,160,0,1,200,80,-
77,78,50,2,2,200,25,-
78,79,68,1,2,200,34,-
79,80,198,0,1,200,99,-
80,81,250,10,6,500,50,Intro
81,82,125,10,6,500,25,-
82,83,75,5,6,500,15,-
83,84,300,10,5,500,60,-
84,85,375,3,5,500,75,-
85,86,125,5,5,500,25,-
86,87,275,2,6,500,55,-
87,88,325,10,6,500,65,Edgy
88,89,75,2,3,500,15,-
89,90,450,5,2,500,90,-
90,91,50,1,5,500,10,-
91,92,250,5,3,500,50,-
92,93,215,5,8,500,43,-
93,94,250,0,8,500,50,-
94,95,275,10,2,500,55,Fast
95,96,375,5,3,500,75,-
96,97,225,3,2,500,45,-
97,98,475,3,2,500,95,-
98,99,250,2,2,500,50,-
99,100,125,1,3,500,25,-
100,101,200,0,2,500,40,-
101,102,275,2,6,500,55,Accuracy
102,103,125,2,6,500,25,-
103,104,375,5,5,500,75,-
104,105,75,2,5,500,15,-
105,106,300,0,4,500,60,-
106,107,175,5,4,500,35,-
107,108,400,0,3,500,80,-
108,109,210,1,2,500,42,-
109,110,435,0,1,500,87,-
110,111,125,2,1,500,25,Fast Acc
111,112,250,1,2,500,50,-
112,113,380,0,2,500,76,-
113,114,270,2,1,500,54,-
114,115,170,3,2,500,34,-
115,116,335,1,2,500,67,-
116,117,400,0,1,500,80,-
117,118,125,2,2,500,25,-
118,119,170,1,2,500,34,-
119,120,495,0,1,500,99,-
120,121,500,10,6,1000,50,Intro
121,122,250,10,6,1000,25,-
122,123,150,5,6,1000,15,-
123,124,600,10,5,1000,60,-
124,125,750,3,5,1000,75,-
125,126,250,5,5,1000,25,-
126,127,550,2,6,1000,55,-
127,128,650,10,6,1000,65,Edgy
128,129,150,2,3,1000,15,-
129,130,900,5,2,1000,90,-
130,131,100,1,5,1000,10,-
131,132,500,5,3,1000,50,-
132,133,430,5,8,1000,43,-
133,134,500,0,8,1000,50,-
134,135,550,10,2,1000,55,Fast
135,136,750,5,3,1000,75,-
136,137,450,3,2,1000,45,-
137,138,950,3,2,1000,95,-
138,139,500,2,2,1000,50,-
139,140,250,1,3,1000,25,-
140,141,400,0,2,1000,40,-
141,142,550,2,6,1000,55,Accuracy
142,143,250,2,6,1000,25,-
143,144,750,5,5,1000,75,-
144,145,150,2,5,1000,15,-
145,146,600,0,4,1000,60,-
146,147,350,5,4,1000,35,-
147,148,800,0,3,1000,80,-
148,149,420,1,2,1000,42,-
149,150,870,0,1,1000,87,-
150,151,250,2,1,1000,25,Fast Acc
151,152,500,1,2,1000,50,-
152,153,760,0,2,1000,76,-
153,154,540,2,1,1000,54,-
154,155,340,3,2,1000,34,-
155,156,670,1,2,1000,67,-
156,157,800,0,1,1000,80,-
157,158,250,2,2,1000,25,-
158,159,340,1,2,1000,34,-
159,160,990,0,1,1000,99,-
160,161,1250,10,6,2500,50,Intro
161,162,625,10,6,2500,25,-
162,163,375,5,6,2500,15,-
163,164,1500,10,5,2500,60,-
164,165,1875,3,5,2500,75,-
165,166,625,5,5,2500,25,-
166,167,1375,2,6,2500,55,-
167,168,1625,10,6,2500,65,Edgy
168,169,375,2,3,2500,15,-
169,170,2250,5,2,2500,90,-
170,171,250,1,5,2500,10,-
171,172,1250,5,3,2500,50,-
172,173,1075,5,8,2500,43,-
173,174,1250,0,8,2500,50,-
174,175,1375,10,2,2500,55,Fast
175,176,1875,5,3,2500,75,-
176,177,1125,3,2,2500,45,-
177,178,2375,3,2,2500,95,-
178,179,1250,2,2,2500,50,-
179,180,625,1,3,2500,25,-
180,181,1000,0,2,2500,40,-
181,182,1375,2,6,2500,55,Accuracy
182,183,625,2,6,2500,25,-
183,184,1875,5,5,2500,75,-
184,185,375,2,5,2500,15,-
185,186,1500,0,4,2500,60,-
186,187,875,5,4,2500,35,-
187,188,2000,0,3,2500,80,-
188,189,1050,1,2,2500,42,-
189,190,2175,0,1,2500,87,-
190,191,625,2,1,2500,25,Fast Acc
191,192,1250,1,2,2500,50,-
192,193,1900,0,2,2500,76,-
193,194,1350,2,1,2500,54,-
194,195,850,3,2,2500,34,-
195,196,1675,1,2,2500,67,-
196,197,2000,0,1,2500,80,-
197,198,625,2,2,2500,25,-
198,199,850,1,2,2500,34,-
199,200,2475,0,1,2500,99,-
200,201,2500,10,6,5000,50,Intro
201,202,1250,10,6,5000,25,-
202,203,750,5,6,5000,15,-
203,204,3000,10,5,5000,60,-
204,205,3750,3,5,5000,75,-
205,206,1250,5,5,5000,25,-
206,207,2750,2,6,5000,55,-
207,208,3250,10,6,5000,65,Edgy
208,209,750,2,3,5000,15,-
209,210,4500,5,2,5000,90,-
210,211,500,1,5,5000,10,-
211,212,2500,5,3,5000,50,-
212,213,2150,5,8,5000,43,-
213,214,2500,0,8,5000,50,-
214,215,2750,10,2,5000,55,Fast
215,216,3750,5,3,5000,75,-
216,217,2250,3,2,5000,45,-
217,218,4750,3,2,5000,95,-
218,219,2500,2,2,5000,50,-
219,220,1250,1,3,5000,25,-
220,221,2000,0,2,5000,40,-
221,222,2750,2,6,5000,55,Accuracy
222,223,1250,2,6,5000,25,-
223,224,3750,5,5,5000,75,-
224,225,750,2,5,5000,15,-
225,226,3000,0,4,5000,60,-
226,227,1750,5,4,5000,35,-
227,228,4000,0,3,5000,80,-
228,229,2100,1,2,5000,42,-
229,230,4350,0,1,5000,87,-
230,231,1250,2,1,5000,25,Fast Acc
231,232,2500,1,2,5000,50,-
232,233,3800,0,2,5000,76,-
233,234,2700,2,1,5000,54,-
234,235,1700,3,2,5000,34,-
235,236,3350,1,2,5000,67,-
236,237,4000,0,1,5000,80,-
237,238,1250,2,2,5000,25,-
238,239,1700,1,2,5000,34,-
239,240,4950,0,1,5000,99,-
200,201,5000,10,6,9999,50,Intro
201,202,2500,10,6,9999,25,-
202,203,1500,5,6,9999,15,-
203,204,5999,10,5,9999,60,-
204,205,7499,3,5,9999,75,-
205,206,2500,5,5,9999,25,-
206,207,5499,2,6,9999,55,-
207,208,6499,10,6,9999,65,Edgy
208,209,1500,2,3,9999,15,-
209,210,8999,5,2,9999,90,-
210,211,1000,1,5,9999,10,-
211,212,5000,5,3,9999,50,-
212,213,4300,5,8,9999,43,-
213,214,5000,0,8,9999,50,-
214,215,5499,10,2,9999,55,Fast
215,216,7499,5,3,9999,75,-
216,217,4500,3,2,9999,45,-
217,218,9499,3,2,9999,95,-
218,219,5000,2,2,9999,50,-
219,220,2500,1,3,9999,25,-
220,221,4000,0,2,9999,40,-
221,222,5499,2,6,9999,55,Accuracy
222,223,2500,2,6,9999,25,-
223,224,7499,5,5,9999,75,-
224,225,1500,2,5,9999,15,-
225,226,5999,0,4,9999,60,-
226,227,3500,5,4,9999,35,-
227,228,7999,0,3,9999,80,-
228,229,4200,1,2,9999,42,-
229,230,8699,0,1,9999,87,-
230,231,2500,2,1,9999,25,Fast Acc
231,232,5000,1,2,9999,50,-
232,233,7599,0,2,9999,76,-
233,234,5399,2,1,9999,54,-
234,235,3400,3,2,9999,34,-
235,236,6699,1,2,9999,67,-
236,237,7999,0,1,9999,80,-
237,238,2500,2,2,9999,25,-
238,239,3400,1,2,9999,34,-
239,240,9899,0,1,9999,99,-