# Object Export From Tinkercad Server 2015

mtllib obj.mtl

o obj_0
v 65 		-29 		7
v 65 		-34 		7
v 67 		-31.5 		10
v 69 		-29 		7
v 69 		-34 		7
# 5 vertices

g group_0_6383466

usemtl color_6383466
s 0

f 1 	2 	3
f 4 	1 	3
f 5 	2 	1
f 5 	1 	4
f 4 	3 	5
f 3 	2 	5
# 6 faces

 #end of obj_0

