# Object Export From Tinkercad Server 2015

mtllib obj.mtl

o obj_0
v 81 		-59 		10
v 81 		-59 		-9
v 81 		-54 		-9
v 81 		-54 		10
v 77.5 		-54 		10
v 77.5 		-54 		-9
v 77.5 		-59 		-9
v 77.5 		-59 		10
# 8 vertices

g group_0_43263

usemtl color_43263
s 0

f 1 	2 	3
f 1 	3 	4
f 5 	6 	7
f 5 	7 	8
f 4 	5 	8
f 4 	8 	1
f 2 	7 	6
f 2 	6 	3
f 4 	3 	6
f 4 	6 	5
f 8 	7 	2
f 8 	2 	1
# 12 faces

 #end of obj_0

